[
  {
    "directory": "/home/white/Documents/_Cateye/frida-cateyes/build/fs-tmp-linux-x86/json-glib",
    "command": "/usr/bin/gcc -m32 -static-libgcc -ffunction-sections -fdata-sections -I/home/white/Documents/_Cateye/frida-cateyes/build/fs-linux-x86/include -Ijson-glib/json-glib-1.0@sta -Ijson-glib -I../../../json-glib/json-glib -I. -I../../../json-glib/ -I/home/white/Documents/_Cateye/frida-cateyes/build/fs-linux-x86/include/glib-2.0 -I/home/white/Documents/_Cateye/frida-cateyes/build/fs-linux-x86/lib/glib-2.0/include -I/home/white/Documents/_Cateye/frida-cateyes/build/fs-linux-x86/include -fdiagnostics-color=always -pipe -D_FILE_OFFSET_BITS=64 -Wall -Winvalid-pch -std=c99 -Os -g -fPIC -pthread '-DG_LOG_DOMAIN=\"Json\"' -DG_LOG_USE_STRUCTURED=1 -DJSON_COMPILATION '-DJSON_LOCALEDIR=\"/home/white/Documents/_Cateye/frida-cateyes/build/fs-linux-x86/share/locale\"' -Wcast-align -Wlogical-op -Wmissing-declarations -Wmissing-format-attribute -Wmissing-prototypes -Wmissing-noreturn -Wold-style-definition -Wpointer-arith -Wshadow -Wstrict-prototypes -Wunused -Wno-discarded-qualifiers -Wno-int-conversion -fno-strict-aliasing -Wno-uninitialized -Werror=address -Werror=array-bounds -Werror=empty-body -Werror=format=2 -Werror=implicit -Werror=init-self -Werror=int-to-pointer-cast -Werror=main -Werror=missing-braces -Werror=nested-externs -Werror=nonnull -Werror=pointer-to-int-cast -Werror=return-type -Werror=sequence-point -Werror=trigraphs -Werror=undef -Werror=write-strings -MD -MQ 'json-glib/json-glib-1.0@sta/meson-generated_.._json-enum-types.c.o' -MF 'json-glib/json-glib-1.0@sta/meson-generated_.._json-enum-types.c.o.d' -o 'json-glib/json-glib-1.0@sta/meson-generated_.._json-enum-types.c.o' -c json-glib/json-enum-types.c",
    "file": "json-glib/json-enum-types.c"
  },
  {
    "directory": "/home/white/Documents/_Cateye/frida-cateyes/build/fs-tmp-linux-x86/json-glib",
    "command": "/usr/bin/gcc -m32 -static-libgcc -ffunction-sections -fdata-sections -I/home/white/Documents/_Cateye/frida-cateyes/build/fs-linux-x86/include -Ijson-glib/json-glib-1.0@sta -Ijson-glib -I../../../json-glib/json-glib -I. -I../../../json-glib/ -I/home/white/Documents/_Cateye/frida-cateyes/build/fs-linux-x86/include/glib-2.0 -I/home/white/Documents/_Cateye/frida-cateyes/build/fs-linux-x86/lib/glib-2.0/include -I/home/white/Documents/_Cateye/frida-cateyes/build/fs-linux-x86/include -fdiagnostics-color=always -pipe -D_FILE_OFFSET_BITS=64 -Wall -Winvalid-pch -std=c99 -Os -g -fPIC -pthread '-DG_LOG_DOMAIN=\"Json\"' -DG_LOG_USE_STRUCTURED=1 -DJSON_COMPILATION '-DJSON_LOCALEDIR=\"/home/white/Documents/_Cateye/frida-cateyes/build/fs-linux-x86/share/locale\"' -Wcast-align -Wlogical-op -Wmissing-declarations -Wmissing-format-attribute -Wmissing-prototypes -Wmissing-noreturn -Wold-style-definition -Wpointer-arith -Wshadow -Wstrict-prototypes -Wunused -Wno-discarded-qualifiers -Wno-int-conversion -fno-strict-aliasing -Wno-uninitialized -Werror=address -Werror=array-bounds -Werror=empty-body -Werror=format=2 -Werror=implicit -Werror=init-self -Werror=int-to-pointer-cast -Werror=main -Werror=missing-braces -Werror=nested-externs -Werror=nonnull -Werror=pointer-to-int-cast -Werror=return-type -Werror=sequence-point -Werror=trigraphs -Werror=undef -Werror=write-strings -MD -MQ 'json-glib/json-glib-1.0@sta/json-array.c.o' -MF 'json-glib/json-glib-1.0@sta/json-array.c.o.d' -o 'json-glib/json-glib-1.0@sta/json-array.c.o' -c ../../../json-glib/json-glib/json-array.c",
    "file": "../../../json-glib/json-glib/json-array.c"
  },
  {
    "directory": "/home/white/Documents/_Cateye/frida-cateyes/build/fs-tmp-linux-x86/json-glib",
    "command": "/usr/bin/gcc -m32 -static-libgcc -ffunction-sections -fdata-sections -I/home/white/Documents/_Cateye/frida-cateyes/build/fs-linux-x86/include -Ijson-glib/json-glib-1.0@sta -Ijson-glib -I../../../json-glib/json-glib -I. -I../../../json-glib/ -I/home/white/Documents/_Cateye/frida-cateyes/build/fs-linux-x86/include/glib-2.0 -I/home/white/Documents/_Cateye/frida-cateyes/build/fs-linux-x86/lib/glib-2.0/include -I/home/white/Documents/_Cateye/frida-cateyes/build/fs-linux-x86/include -fdiagnostics-color=always -pipe -D_FILE_OFFSET_BITS=64 -Wall -Winvalid-pch -std=c99 -Os -g -fPIC -pthread '-DG_LOG_DOMAIN=\"Json\"' -DG_LOG_USE_STRUCTURED=1 -DJSON_COMPILATION '-DJSON_LOCALEDIR=\"/home/white/Documents/_Cateye/frida-cateyes/build/fs-linux-x86/share/locale\"' -Wcast-align -Wlogical-op -Wmissing-declarations -Wmissing-format-attribute -Wmissing-prototypes -Wmissing-noreturn -Wold-style-definition -Wpointer-arith -Wshadow -Wstrict-prototypes -Wunused -Wno-discarded-qualifiers -Wno-int-conversion -fno-strict-aliasing -Wno-uninitialized -Werror=address -Werror=array-bounds -Werror=empty-body -Werror=format=2 -Werror=implicit -Werror=init-self -Werror=int-to-pointer-cast -Werror=main -Werror=missing-braces -Werror=nested-externs -Werror=nonnull -Werror=pointer-to-int-cast -Werror=return-type -Werror=sequence-point -Werror=trigraphs -Werror=undef -Werror=write-strings -MD -MQ 'json-glib/json-glib-1.0@sta/json-builder.c.o' -MF 'json-glib/json-glib-1.0@sta/json-builder.c.o.d' -o 'json-glib/json-glib-1.0@sta/json-builder.c.o' -c ../../../json-glib/json-glib/json-builder.c",
    "file": "../../../json-glib/json-glib/json-builder.c"
  },
  {
    "directory": "/home/white/Documents/_Cateye/frida-cateyes/build/fs-tmp-linux-x86/json-glib",
    "command": "/usr/bin/gcc -m32 -static-libgcc -ffunction-sections -fdata-sections -I/home/white/Documents/_Cateye/frida-cateyes/build/fs-linux-x86/include -Ijson-glib/json-glib-1.0@sta -Ijson-glib -I../../../json-glib/json-glib -I. -I../../../json-glib/ -I/home/white/Documents/_Cateye/frida-cateyes/build/fs-linux-x86/include/glib-2.0 -I/home/white/Documents/_Cateye/frida-cateyes/build/fs-linux-x86/lib/glib-2.0/include -I/home/white/Documents/_Cateye/frida-cateyes/build/fs-linux-x86/include -fdiagnostics-color=always -pipe -D_FILE_OFFSET_BITS=64 -Wall -Winvalid-pch -std=c99 -Os -g -fPIC -pthread '-DG_LOG_DOMAIN=\"Json\"' -DG_LOG_USE_STRUCTURED=1 -DJSON_COMPILATION '-DJSON_LOCALEDIR=\"/home/white/Documents/_Cateye/frida-cateyes/build/fs-linux-x86/share/locale\"' -Wcast-align -Wlogical-op -Wmissing-declarations -Wmissing-format-attribute -Wmissing-prototypes -Wmissing-noreturn -Wold-style-definition -Wpointer-arith -Wshadow -Wstrict-prototypes -Wunused -Wno-discarded-qualifiers -Wno-int-conversion -fno-strict-aliasing -Wno-uninitialized -Werror=address -Werror=array-bounds -Werror=empty-body -Werror=format=2 -Werror=implicit -Werror=init-self -Werror=int-to-pointer-cast -Werror=main -Werror=missing-braces -Werror=nested-externs -Werror=nonnull -Werror=pointer-to-int-cast -Werror=return-type -Werror=sequence-point -Werror=trigraphs -Werror=undef -Werror=write-strings -MD -MQ 'json-glib/json-glib-1.0@sta/json-debug.c.o' -MF 'json-glib/json-glib-1.0@sta/json-debug.c.o.d' -o 'json-glib/json-glib-1.0@sta/json-debug.c.o' -c ../../../json-glib/json-glib/json-debug.c",
    "file": "../../../json-glib/json-glib/json-debug.c"
  },
  {
    "directory": "/home/white/Documents/_Cateye/frida-cateyes/build/fs-tmp-linux-x86/json-glib",
    "command": "/usr/bin/gcc -m32 -static-libgcc -ffunction-sections -fdata-sections -I/home/white/Documents/_Cateye/frida-cateyes/build/fs-linux-x86/include -Ijson-glib/json-glib-1.0@sta -Ijson-glib -I../../../json-glib/json-glib -I. -I../../../json-glib/ -I/home/white/Documents/_Cateye/frida-cateyes/build/fs-linux-x86/include/glib-2.0 -I/home/white/Documents/_Cateye/frida-cateyes/build/fs-linux-x86/lib/glib-2.0/include -I/home/white/Documents/_Cateye/frida-cateyes/build/fs-linux-x86/include -fdiagnostics-color=always -pipe -D_FILE_OFFSET_BITS=64 -Wall -Winvalid-pch -std=c99 -Os -g -fPIC -pthread '-DG_LOG_DOMAIN=\"Json\"' -DG_LOG_USE_STRUCTURED=1 -DJSON_COMPILATION '-DJSON_LOCALEDIR=\"/home/white/Documents/_Cateye/frida-cateyes/build/fs-linux-x86/share/locale\"' -Wcast-align -Wlogical-op -Wmissing-declarations -Wmissing-format-attribute -Wmissing-prototypes -Wmissing-noreturn -Wold-style-definition -Wpointer-arith -Wshadow -Wstrict-prototypes -Wunused -Wno-discarded-qualifiers -Wno-int-conversion -fno-strict-aliasing -Wno-uninitialized -Werror=address -Werror=array-bounds -Werror=empty-body -Werror=format=2 -Werror=implicit -Werror=init-self -Werror=int-to-pointer-cast -Werror=main -Werror=missing-braces -Werror=nested-externs -Werror=nonnull -Werror=pointer-to-int-cast -Werror=return-type -Werror=sequence-point -Werror=trigraphs -Werror=undef -Werror=write-strings -MD -MQ 'json-glib/json-glib-1.0@sta/json-gboxed.c.o' -MF 'json-glib/json-glib-1.0@sta/json-gboxed.c.o.d' -o 'json-glib/json-glib-1.0@sta/json-gboxed.c.o' -c ../../../json-glib/json-glib/json-gboxed.c",
    "file": "../../../json-glib/json-glib/json-gboxed.c"
  },
  {
    "directory": "/home/white/Documents/_Cateye/frida-cateyes/build/fs-tmp-linux-x86/json-glib",
    "command": "/usr/bin/gcc -m32 -static-libgcc -ffunction-sections -fdata-sections -I/home/white/Documents/_Cateye/frida-cateyes/build/fs-linux-x86/include -Ijson-glib/json-glib-1.0@sta -Ijson-glib -I../../../json-glib/json-glib -I. -I../../../json-glib/ -I/home/white/Documents/_Cateye/frida-cateyes/build/fs-linux-x86/include/glib-2.0 -I/home/white/Documents/_Cateye/frida-cateyes/build/fs-linux-x86/lib/glib-2.0/include -I/home/white/Documents/_Cateye/frida-cateyes/build/fs-linux-x86/include -fdiagnostics-color=always -pipe -D_FILE_OFFSET_BITS=64 -Wall -Winvalid-pch -std=c99 -Os -g -fPIC -pthread '-DG_LOG_DOMAIN=\"Json\"' -DG_LOG_USE_STRUCTURED=1 -DJSON_COMPILATION '-DJSON_LOCALEDIR=\"/home/white/Documents/_Cateye/frida-cateyes/build/fs-linux-x86/share/locale\"' -Wcast-align -Wlogical-op -Wmissing-declarations -Wmissing-format-attribute -Wmissing-prototypes -Wmissing-noreturn -Wold-style-definition -Wpointer-arith -Wshadow -Wstrict-prototypes -Wunused -Wno-discarded-qualifiers -Wno-int-conversion -fno-strict-aliasing -Wno-uninitialized -Werror=address -Werror=array-bounds -Werror=empty-body -Werror=format=2 -Werror=implicit -Werror=init-self -Werror=int-to-pointer-cast -Werror=main -Werror=missing-braces -Werror=nested-externs -Werror=nonnull -Werror=pointer-to-int-cast -Werror=return-type -Werror=sequence-point -Werror=trigraphs -Werror=undef -Werror=write-strings -MD -MQ 'json-glib/json-glib-1.0@sta/json-generator.c.o' -MF 'json-glib/json-glib-1.0@sta/json-generator.c.o.d' -o 'json-glib/json-glib-1.0@sta/json-generator.c.o' -c ../../../json-glib/json-glib/json-generator.c",
    "file": "../../../json-glib/json-glib/json-generator.c"
  },
  {
    "directory": "/home/white/Documents/_Cateye/frida-cateyes/build/fs-tmp-linux-x86/json-glib",
    "command": "/usr/bin/gcc -m32 -static-libgcc -ffunction-sections -fdata-sections -I/home/white/Documents/_Cateye/frida-cateyes/build/fs-linux-x86/include -Ijson-glib/json-glib-1.0@sta -Ijson-glib -I../../../json-glib/json-glib -I. -I../../../json-glib/ -I/home/white/Documents/_Cateye/frida-cateyes/build/fs-linux-x86/include/glib-2.0 -I/home/white/Documents/_Cateye/frida-cateyes/build/fs-linux-x86/lib/glib-2.0/include -I/home/white/Documents/_Cateye/frida-cateyes/build/fs-linux-x86/include -fdiagnostics-color=always -pipe -D_FILE_OFFSET_BITS=64 -Wall -Winvalid-pch -std=c99 -Os -g -fPIC -pthread '-DG_LOG_DOMAIN=\"Json\"' -DG_LOG_USE_STRUCTURED=1 -DJSON_COMPILATION '-DJSON_LOCALEDIR=\"/home/white/Documents/_Cateye/frida-cateyes/build/fs-linux-x86/share/locale\"' -Wcast-align -Wlogical-op -Wmissing-declarations -Wmissing-format-attribute -Wmissing-prototypes -Wmissing-noreturn -Wold-style-definition -Wpointer-arith -Wshadow -Wstrict-prototypes -Wunused -Wno-discarded-qualifiers -Wno-int-conversion -fno-strict-aliasing -Wno-uninitialized -Werror=address -Werror=array-bounds -Werror=empty-body -Werror=format=2 -Werror=implicit -Werror=init-self -Werror=int-to-pointer-cast -Werror=main -Werror=missing-braces -Werror=nested-externs -Werror=nonnull -Werror=pointer-to-int-cast -Werror=return-type -Werror=sequence-point -Werror=trigraphs -Werror=undef -Werror=write-strings -MD -MQ 'json-glib/json-glib-1.0@sta/json-gobject.c.o' -MF 'json-glib/json-glib-1.0@sta/json-gobject.c.o.d' -o 'json-glib/json-glib-1.0@sta/json-gobject.c.o' -c ../../../json-glib/json-glib/json-gobject.c",
    "file": "../../../json-glib/json-glib/json-gobject.c"
  },
  {
    "directory": "/home/white/Documents/_Cateye/frida-cateyes/build/fs-tmp-linux-x86/json-glib",
    "command": "/usr/bin/gcc -m32 -static-libgcc -ffunction-sections -fdata-sections -I/home/white/Documents/_Cateye/frida-cateyes/build/fs-linux-x86/include -Ijson-glib/json-glib-1.0@sta -Ijson-glib -I../../../json-glib/json-glib -I. -I../../../json-glib/ -I/home/white/Documents/_Cateye/frida-cateyes/build/fs-linux-x86/include/glib-2.0 -I/home/white/Documents/_Cateye/frida-cateyes/build/fs-linux-x86/lib/glib-2.0/include -I/home/white/Documents/_Cateye/frida-cateyes/build/fs-linux-x86/include -fdiagnostics-color=always -pipe -D_FILE_OFFSET_BITS=64 -Wall -Winvalid-pch -std=c99 -Os -g -fPIC -pthread '-DG_LOG_DOMAIN=\"Json\"' -DG_LOG_USE_STRUCTURED=1 -DJSON_COMPILATION '-DJSON_LOCALEDIR=\"/home/white/Documents/_Cateye/frida-cateyes/build/fs-linux-x86/share/locale\"' -Wcast-align -Wlogical-op -Wmissing-declarations -Wmissing-format-attribute -Wmissing-prototypes -Wmissing-noreturn -Wold-style-definition -Wpointer-arith -Wshadow -Wstrict-prototypes -Wunused -Wno-discarded-qualifiers -Wno-int-conversion -fno-strict-aliasing -Wno-uninitialized -Werror=address -Werror=array-bounds -Werror=empty-body -Werror=format=2 -Werror=implicit -Werror=init-self -Werror=int-to-pointer-cast -Werror=main -Werror=missing-braces -Werror=nested-externs -Werror=nonnull -Werror=pointer-to-int-cast -Werror=return-type -Werror=sequence-point -Werror=trigraphs -Werror=undef -Werror=write-strings -MD -MQ 'json-glib/json-glib-1.0@sta/json-gvariant.c.o' -MF 'json-glib/json-glib-1.0@sta/json-gvariant.c.o.d' -o 'json-glib/json-glib-1.0@sta/json-gvariant.c.o' -c ../../../json-glib/json-glib/json-gvariant.c",
    "file": "../../../json-glib/json-glib/json-gvariant.c"
  },
  {
    "directory": "/home/white/Documents/_Cateye/frida-cateyes/build/fs-tmp-linux-x86/json-glib",
    "command": "/usr/bin/gcc -m32 -static-libgcc -ffunction-sections -fdata-sections -I/home/white/Documents/_Cateye/frida-cateyes/build/fs-linux-x86/include -Ijson-glib/json-glib-1.0@sta -Ijson-glib -I../../../json-glib/json-glib -I. -I../../../json-glib/ -I/home/white/Documents/_Cateye/frida-cateyes/build/fs-linux-x86/include/glib-2.0 -I/home/white/Documents/_Cateye/frida-cateyes/build/fs-linux-x86/lib/glib-2.0/include -I/home/white/Documents/_Cateye/frida-cateyes/build/fs-linux-x86/include -fdiagnostics-color=always -pipe -D_FILE_OFFSET_BITS=64 -Wall -Winvalid-pch -std=c99 -Os -g -fPIC -pthread '-DG_LOG_DOMAIN=\"Json\"' -DG_LOG_USE_STRUCTURED=1 -DJSON_COMPILATION '-DJSON_LOCALEDIR=\"/home/white/Documents/_Cateye/frida-cateyes/build/fs-linux-x86/share/locale\"' -Wcast-align -Wlogical-op -Wmissing-declarations -Wmissing-format-attribute -Wmissing-prototypes -Wmissing-noreturn -Wold-style-definition -Wpointer-arith -Wshadow -Wstrict-prototypes -Wunused -Wno-discarded-qualifiers -Wno-int-conversion -fno-strict-aliasing -Wno-uninitialized -Werror=address -Werror=array-bounds -Werror=empty-body -Werror=format=2 -Werror=implicit -Werror=init-self -Werror=int-to-pointer-cast -Werror=main -Werror=missing-braces -Werror=nested-externs -Werror=nonnull -Werror=pointer-to-int-cast -Werror=return-type -Werror=sequence-point -Werror=trigraphs -Werror=undef -Werror=write-strings -MD -MQ 'json-glib/json-glib-1.0@sta/json-node.c.o' -MF 'json-glib/json-glib-1.0@sta/json-node.c.o.d' -o 'json-glib/json-glib-1.0@sta/json-node.c.o' -c ../../../json-glib/json-glib/json-node.c",
    "file": "../../../json-glib/json-glib/json-node.c"
  },
  {
    "directory": "/home/white/Documents/_Cateye/frida-cateyes/build/fs-tmp-linux-x86/json-glib",
    "command": "/usr/bin/gcc -m32 -static-libgcc -ffunction-sections -fdata-sections -I/home/white/Documents/_Cateye/frida-cateyes/build/fs-linux-x86/include -Ijson-glib/json-glib-1.0@sta -Ijson-glib -I../../../json-glib/json-glib -I. -I../../../json-glib/ -I/home/white/Documents/_Cateye/frida-cateyes/build/fs-linux-x86/include/glib-2.0 -I/home/white/Documents/_Cateye/frida-cateyes/build/fs-linux-x86/lib/glib-2.0/include -I/home/white/Documents/_Cateye/frida-cateyes/build/fs-linux-x86/include -fdiagnostics-color=always -pipe -D_FILE_OFFSET_BITS=64 -Wall -Winvalid-pch -std=c99 -Os -g -fPIC -pthread '-DG_LOG_DOMAIN=\"Json\"' -DG_LOG_USE_STRUCTURED=1 -DJSON_COMPILATION '-DJSON_LOCALEDIR=\"/home/white/Documents/_Cateye/frida-cateyes/build/fs-linux-x86/share/locale\"' -Wcast-align -Wlogical-op -Wmissing-declarations -Wmissing-format-attribute -Wmissing-prototypes -Wmissing-noreturn -Wold-style-definition -Wpointer-arith -Wshadow -Wstrict-prototypes -Wunused -Wno-discarded-qualifiers -Wno-int-conversion -fno-strict-aliasing -Wno-uninitialized -Werror=address -Werror=array-bounds -Werror=empty-body -Werror=format=2 -Werror=implicit -Werror=init-self -Werror=int-to-pointer-cast -Werror=main -Werror=missing-braces -Werror=nested-externs -Werror=nonnull -Werror=pointer-to-int-cast -Werror=return-type -Werror=sequence-point -Werror=trigraphs -Werror=undef -Werror=write-strings -MD -MQ 'json-glib/json-glib-1.0@sta/json-object.c.o' -MF 'json-glib/json-glib-1.0@sta/json-object.c.o.d' -o 'json-glib/json-glib-1.0@sta/json-object.c.o' -c ../../../json-glib/json-glib/json-object.c",
    "file": "../../../json-glib/json-glib/json-object.c"
  },
  {
    "directory": "/home/white/Documents/_Cateye/frida-cateyes/build/fs-tmp-linux-x86/json-glib",
    "command": "/usr/bin/gcc -m32 -static-libgcc -ffunction-sections -fdata-sections -I/home/white/Documents/_Cateye/frida-cateyes/build/fs-linux-x86/include -Ijson-glib/json-glib-1.0@sta -Ijson-glib -I../../../json-glib/json-glib -I. -I../../../json-glib/ -I/home/white/Documents/_Cateye/frida-cateyes/build/fs-linux-x86/include/glib-2.0 -I/home/white/Documents/_Cateye/frida-cateyes/build/fs-linux-x86/lib/glib-2.0/include -I/home/white/Documents/_Cateye/frida-cateyes/build/fs-linux-x86/include -fdiagnostics-color=always -pipe -D_FILE_OFFSET_BITS=64 -Wall -Winvalid-pch -std=c99 -Os -g -fPIC -pthread '-DG_LOG_DOMAIN=\"Json\"' -DG_LOG_USE_STRUCTURED=1 -DJSON_COMPILATION '-DJSON_LOCALEDIR=\"/home/white/Documents/_Cateye/frida-cateyes/build/fs-linux-x86/share/locale\"' -Wcast-align -Wlogical-op -Wmissing-declarations -Wmissing-format-attribute -Wmissing-prototypes -Wmissing-noreturn -Wold-style-definition -Wpointer-arith -Wshadow -Wstrict-prototypes -Wunused -Wno-discarded-qualifiers -Wno-int-conversion -fno-strict-aliasing -Wno-uninitialized -Werror=address -Werror=array-bounds -Werror=empty-body -Werror=format=2 -Werror=implicit -Werror=init-self -Werror=int-to-pointer-cast -Werror=main -Werror=missing-braces -Werror=nested-externs -Werror=nonnull -Werror=pointer-to-int-cast -Werror=return-type -Werror=sequence-point -Werror=trigraphs -Werror=undef -Werror=write-strings -MD -MQ 'json-glib/json-glib-1.0@sta/json-parser.c.o' -MF 'json-glib/json-glib-1.0@sta/json-parser.c.o.d' -o 'json-glib/json-glib-1.0@sta/json-parser.c.o' -c ../../../json-glib/json-glib/json-parser.c",
    "file": "../../../json-glib/json-glib/json-parser.c"
  },
  {
    "directory": "/home/white/Documents/_Cateye/frida-cateyes/build/fs-tmp-linux-x86/json-glib",
    "command": "/usr/bin/gcc -m32 -static-libgcc -ffunction-sections -fdata-sections -I/home/white/Documents/_Cateye/frida-cateyes/build/fs-linux-x86/include -Ijson-glib/json-glib-1.0@sta -Ijson-glib -I../../../json-glib/json-glib -I. -I../../../json-glib/ -I/home/white/Documents/_Cateye/frida-cateyes/build/fs-linux-x86/include/glib-2.0 -I/home/white/Documents/_Cateye/frida-cateyes/build/fs-linux-x86/lib/glib-2.0/include -I/home/white/Documents/_Cateye/frida-cateyes/build/fs-linux-x86/include -fdiagnostics-color=always -pipe -D_FILE_OFFSET_BITS=64 -Wall -Winvalid-pch -std=c99 -Os -g -fPIC -pthread '-DG_LOG_DOMAIN=\"Json\"' -DG_LOG_USE_STRUCTURED=1 -DJSON_COMPILATION '-DJSON_LOCALEDIR=\"/home/white/Documents/_Cateye/frida-cateyes/build/fs-linux-x86/share/locale\"' -Wcast-align -Wlogical-op -Wmissing-declarations -Wmissing-format-attribute -Wmissing-prototypes -Wmissing-noreturn -Wold-style-definition -Wpointer-arith -Wshadow -Wstrict-prototypes -Wunused -Wno-discarded-qualifiers -Wno-int-conversion -fno-strict-aliasing -Wno-uninitialized -Werror=address -Werror=array-bounds -Werror=empty-body -Werror=format=2 -Werror=implicit -Werror=init-self -Werror=int-to-pointer-cast -Werror=main -Werror=missing-braces -Werror=nested-externs -Werror=nonnull -Werror=pointer-to-int-cast -Werror=return-type -Werror=sequence-point -Werror=trigraphs -Werror=undef -Werror=write-strings -MD -MQ 'json-glib/json-glib-1.0@sta/json-path.c.o' -MF 'json-glib/json-glib-1.0@sta/json-path.c.o.d' -o 'json-glib/json-glib-1.0@sta/json-path.c.o' -c ../../../json-glib/json-glib/json-path.c",
    "file": "../../../json-glib/json-glib/json-path.c"
  },
  {
    "directory": "/home/white/Documents/_Cateye/frida-cateyes/build/fs-tmp-linux-x86/json-glib",
    "command": "/usr/bin/gcc -m32 -static-libgcc -ffunction-sections -fdata-sections -I/home/white/Documents/_Cateye/frida-cateyes/build/fs-linux-x86/include -Ijson-glib/json-glib-1.0@sta -Ijson-glib -I../../../json-glib/json-glib -I. -I../../../json-glib/ -I/home/white/Documents/_Cateye/frida-cateyes/build/fs-linux-x86/include/glib-2.0 -I/home/white/Documents/_Cateye/frida-cateyes/build/fs-linux-x86/lib/glib-2.0/include -I/home/white/Documents/_Cateye/frida-cateyes/build/fs-linux-x86/include -fdiagnostics-color=always -pipe -D_FILE_OFFSET_BITS=64 -Wall -Winvalid-pch -std=c99 -Os -g -fPIC -pthread '-DG_LOG_DOMAIN=\"Json\"' -DG_LOG_USE_STRUCTURED=1 -DJSON_COMPILATION '-DJSON_LOCALEDIR=\"/home/white/Documents/_Cateye/frida-cateyes/build/fs-linux-x86/share/locale\"' -Wcast-align -Wlogical-op -Wmissing-declarations -Wmissing-format-attribute -Wmissing-prototypes -Wmissing-noreturn -Wold-style-definition -Wpointer-arith -Wshadow -Wstrict-prototypes -Wunused -Wno-discarded-qualifiers -Wno-int-conversion -fno-strict-aliasing -Wno-uninitialized -Werror=address -Werror=array-bounds -Werror=empty-body -Werror=format=2 -Werror=implicit -Werror=init-self -Werror=int-to-pointer-cast -Werror=main -Werror=missing-braces -Werror=nested-externs -Werror=nonnull -Werror=pointer-to-int-cast -Werror=return-type -Werror=sequence-point -Werror=trigraphs -Werror=undef -Werror=write-strings -MD -MQ 'json-glib/json-glib-1.0@sta/json-reader.c.o' -MF 'json-glib/json-glib-1.0@sta/json-reader.c.o.d' -o 'json-glib/json-glib-1.0@sta/json-reader.c.o' -c ../../../json-glib/json-glib/json-reader.c",
    "file": "../../../json-glib/json-glib/json-reader.c"
  },
  {
    "directory": "/home/white/Documents/_Cateye/frida-cateyes/build/fs-tmp-linux-x86/json-glib",
    "command": "/usr/bin/gcc -m32 -static-libgcc -ffunction-sections -fdata-sections -I/home/white/Documents/_Cateye/frida-cateyes/build/fs-linux-x86/include -Ijson-glib/json-glib-1.0@sta -Ijson-glib -I../../../json-glib/json-glib -I. -I../../../json-glib/ -I/home/white/Documents/_Cateye/frida-cateyes/build/fs-linux-x86/include/glib-2.0 -I/home/white/Documents/_Cateye/frida-cateyes/build/fs-linux-x86/lib/glib-2.0/include -I/home/white/Documents/_Cateye/frida-cateyes/build/fs-linux-x86/include -fdiagnostics-color=always -pipe -D_FILE_OFFSET_BITS=64 -Wall -Winvalid-pch -std=c99 -Os -g -fPIC -pthread '-DG_LOG_DOMAIN=\"Json\"' -DG_LOG_USE_STRUCTURED=1 -DJSON_COMPILATION '-DJSON_LOCALEDIR=\"/home/white/Documents/_Cateye/frida-cateyes/build/fs-linux-x86/share/locale\"' -Wcast-align -Wlogical-op -Wmissing-declarations -Wmissing-format-attribute -Wmissing-prototypes -Wmissing-noreturn -Wold-style-definition -Wpointer-arith -Wshadow -Wstrict-prototypes -Wunused -Wno-discarded-qualifiers -Wno-int-conversion -fno-strict-aliasing -Wno-uninitialized -Werror=address -Werror=array-bounds -Werror=empty-body -Werror=format=2 -Werror=implicit -Werror=init-self -Werror=int-to-pointer-cast -Werror=main -Werror=missing-braces -Werror=nested-externs -Werror=nonnull -Werror=pointer-to-int-cast -Werror=return-type -Werror=sequence-point -Werror=trigraphs -Werror=undef -Werror=write-strings -MD -MQ 'json-glib/json-glib-1.0@sta/json-scanner.c.o' -MF 'json-glib/json-glib-1.0@sta/json-scanner.c.o.d' -o 'json-glib/json-glib-1.0@sta/json-scanner.c.o' -c ../../../json-glib/json-glib/json-scanner.c",
    "file": "../../../json-glib/json-glib/json-scanner.c"
  },
  {
    "directory": "/home/white/Documents/_Cateye/frida-cateyes/build/fs-tmp-linux-x86/json-glib",
    "command": "/usr/bin/gcc -m32 -static-libgcc -ffunction-sections -fdata-sections -I/home/white/Documents/_Cateye/frida-cateyes/build/fs-linux-x86/include -Ijson-glib/json-glib-1.0@sta -Ijson-glib -I../../../json-glib/json-glib -I. -I../../../json-glib/ -I/home/white/Documents/_Cateye/frida-cateyes/build/fs-linux-x86/include/glib-2.0 -I/home/white/Documents/_Cateye/frida-cateyes/build/fs-linux-x86/lib/glib-2.0/include -I/home/white/Documents/_Cateye/frida-cateyes/build/fs-linux-x86/include -fdiagnostics-color=always -pipe -D_FILE_OFFSET_BITS=64 -Wall -Winvalid-pch -std=c99 -Os -g -fPIC -pthread '-DG_LOG_DOMAIN=\"Json\"' -DG_LOG_USE_STRUCTURED=1 -DJSON_COMPILATION '-DJSON_LOCALEDIR=\"/home/white/Documents/_Cateye/frida-cateyes/build/fs-linux-x86/share/locale\"' -Wcast-align -Wlogical-op -Wmissing-declarations -Wmissing-format-attribute -Wmissing-prototypes -Wmissing-noreturn -Wold-style-definition -Wpointer-arith -Wshadow -Wstrict-prototypes -Wunused -Wno-discarded-qualifiers -Wno-int-conversion -fno-strict-aliasing -Wno-uninitialized -Werror=address -Werror=array-bounds -Werror=empty-body -Werror=format=2 -Werror=implicit -Werror=init-self -Werror=int-to-pointer-cast -Werror=main -Werror=missing-braces -Werror=nested-externs -Werror=nonnull -Werror=pointer-to-int-cast -Werror=return-type -Werror=sequence-point -Werror=trigraphs -Werror=undef -Werror=write-strings -MD -MQ 'json-glib/json-glib-1.0@sta/json-serializable.c.o' -MF 'json-glib/json-glib-1.0@sta/json-serializable.c.o.d' -o 'json-glib/json-glib-1.0@sta/json-serializable.c.o' -c ../../../json-glib/json-glib/json-serializable.c",
    "file": "../../../json-glib/json-glib/json-serializable.c"
  },
  {
    "directory": "/home/white/Documents/_Cateye/frida-cateyes/build/fs-tmp-linux-x86/json-glib",
    "command": "/usr/bin/gcc -m32 -static-libgcc -ffunction-sections -fdata-sections -I/home/white/Documents/_Cateye/frida-cateyes/build/fs-linux-x86/include -Ijson-glib/json-glib-1.0@sta -Ijson-glib -I../../../json-glib/json-glib -I. -I../../../json-glib/ -I/home/white/Documents/_Cateye/frida-cateyes/build/fs-linux-x86/include/glib-2.0 -I/home/white/Documents/_Cateye/frida-cateyes/build/fs-linux-x86/lib/glib-2.0/include -I/home/white/Documents/_Cateye/frida-cateyes/build/fs-linux-x86/include -fdiagnostics-color=always -pipe -D_FILE_OFFSET_BITS=64 -Wall -Winvalid-pch -std=c99 -Os -g -fPIC -pthread '-DG_LOG_DOMAIN=\"Json\"' -DG_LOG_USE_STRUCTURED=1 -DJSON_COMPILATION '-DJSON_LOCALEDIR=\"/home/white/Documents/_Cateye/frida-cateyes/build/fs-linux-x86/share/locale\"' -Wcast-align -Wlogical-op -Wmissing-declarations -Wmissing-format-attribute -Wmissing-prototypes -Wmissing-noreturn -Wold-style-definition -Wpointer-arith -Wshadow -Wstrict-prototypes -Wunused -Wno-discarded-qualifiers -Wno-int-conversion -fno-strict-aliasing -Wno-uninitialized -Werror=address -Werror=array-bounds -Werror=empty-body -Werror=format=2 -Werror=implicit -Werror=init-self -Werror=int-to-pointer-cast -Werror=main -Werror=missing-braces -Werror=nested-externs -Werror=nonnull -Werror=pointer-to-int-cast -Werror=return-type -Werror=sequence-point -Werror=trigraphs -Werror=undef -Werror=write-strings -MD -MQ 'json-glib/json-glib-1.0@sta/json-utils.c.o' -MF 'json-glib/json-glib-1.0@sta/json-utils.c.o.d' -o 'json-glib/json-glib-1.0@sta/json-utils.c.o' -c ../../../json-glib/json-glib/json-utils.c",
    "file": "../../../json-glib/json-glib/json-utils.c"
  },
  {
    "directory": "/home/white/Documents/_Cateye/frida-cateyes/build/fs-tmp-linux-x86/json-glib",
    "command": "/usr/bin/gcc -m32 -static-libgcc -ffunction-sections -fdata-sections -I/home/white/Documents/_Cateye/frida-cateyes/build/fs-linux-x86/include -Ijson-glib/json-glib-1.0@sta -Ijson-glib -I../../../json-glib/json-glib -I. -I../../../json-glib/ -I/home/white/Documents/_Cateye/frida-cateyes/build/fs-linux-x86/include/glib-2.0 -I/home/white/Documents/_Cateye/frida-cateyes/build/fs-linux-x86/lib/glib-2.0/include -I/home/white/Documents/_Cateye/frida-cateyes/build/fs-linux-x86/include -fdiagnostics-color=always -pipe -D_FILE_OFFSET_BITS=64 -Wall -Winvalid-pch -std=c99 -Os -g -fPIC -pthread '-DG_LOG_DOMAIN=\"Json\"' -DG_LOG_USE_STRUCTURED=1 -DJSON_COMPILATION '-DJSON_LOCALEDIR=\"/home/white/Documents/_Cateye/frida-cateyes/build/fs-linux-x86/share/locale\"' -Wcast-align -Wlogical-op -Wmissing-declarations -Wmissing-format-attribute -Wmissing-prototypes -Wmissing-noreturn -Wold-style-definition -Wpointer-arith -Wshadow -Wstrict-prototypes -Wunused -Wno-discarded-qualifiers -Wno-int-conversion -fno-strict-aliasing -Wno-uninitialized -Werror=address -Werror=array-bounds -Werror=empty-body -Werror=format=2 -Werror=implicit -Werror=init-self -Werror=int-to-pointer-cast -Werror=main -Werror=missing-braces -Werror=nested-externs -Werror=nonnull -Werror=pointer-to-int-cast -Werror=return-type -Werror=sequence-point -Werror=trigraphs -Werror=undef -Werror=write-strings -MD -MQ 'json-glib/json-glib-1.0@sta/json-value.c.o' -MF 'json-glib/json-glib-1.0@sta/json-value.c.o.d' -o 'json-glib/json-glib-1.0@sta/json-value.c.o' -c ../../../json-glib/json-glib/json-value.c",
    "file": "../../../json-glib/json-glib/json-value.c"
  },
  {
    "directory": "/home/white/Documents/_Cateye/frida-cateyes/build/fs-tmp-linux-x86/json-glib",
    "command": "/usr/bin/gcc -m32 -static-libgcc -ffunction-sections -fdata-sections -I/home/white/Documents/_Cateye/frida-cateyes/build/fs-linux-x86/include -Ijson-glib/json-glib-validate@exe -Ijson-glib -I../../../json-glib/json-glib -I. -I../../../json-glib/ -I/home/white/Documents/_Cateye/frida-cateyes/build/fs-linux-x86/include/glib-2.0 -I/home/white/Documents/_Cateye/frida-cateyes/build/fs-linux-x86/lib/glib-2.0/include -I/home/white/Documents/_Cateye/frida-cateyes/build/fs-linux-x86/include -fdiagnostics-color=always -pipe -D_FILE_OFFSET_BITS=64 -Wall -Winvalid-pch -std=c99 -Os -g -pthread '-DG_LOG_DOMAIN=\"Json\"' -DG_LOG_USE_STRUCTURED=1 -DJSON_COMPILATION '-DJSON_LOCALEDIR=\"/home/white/Documents/_Cateye/frida-cateyes/build/fs-linux-x86/share/locale\"' -MD -MQ 'json-glib/json-glib-validate@exe/json-glib-validate.c.o' -MF 'json-glib/json-glib-validate@exe/json-glib-validate.c.o.d' -o 'json-glib/json-glib-validate@exe/json-glib-validate.c.o' -c ../../../json-glib/json-glib/json-glib-validate.c",
    "file": "../../../json-glib/json-glib/json-glib-validate.c"
  },
  {
    "directory": "/home/white/Documents/_Cateye/frida-cateyes/build/fs-tmp-linux-x86/json-glib",
    "command": "/usr/bin/gcc -m32 -static-libgcc -ffunction-sections -fdata-sections -I/home/white/Documents/_Cateye/frida-cateyes/build/fs-linux-x86/include -Ijson-glib/json-glib-format@exe -Ijson-glib -I../../../json-glib/json-glib -I. -I../../../json-glib/ -I/home/white/Documents/_Cateye/frida-cateyes/build/fs-linux-x86/include/glib-2.0 -I/home/white/Documents/_Cateye/frida-cateyes/build/fs-linux-x86/lib/glib-2.0/include -I/home/white/Documents/_Cateye/frida-cateyes/build/fs-linux-x86/include -fdiagnostics-color=always -pipe -D_FILE_OFFSET_BITS=64 -Wall -Winvalid-pch -std=c99 -Os -g -pthread '-DG_LOG_DOMAIN=\"Json\"' -DG_LOG_USE_STRUCTURED=1 -DJSON_COMPILATION '-DJSON_LOCALEDIR=\"/home/white/Documents/_Cateye/frida-cateyes/build/fs-linux-x86/share/locale\"' -MD -MQ 'json-glib/json-glib-format@exe/json-glib-format.c.o' -MF 'json-glib/json-glib-format@exe/json-glib-format.c.o.d' -o 'json-glib/json-glib-format@exe/json-glib-format.c.o' -c ../../../json-glib/json-glib/json-glib-format.c",
    "file": "../../../json-glib/json-glib/json-glib-format.c"
  },
  {
    "directory": "/home/white/Documents/_Cateye/frida-cateyes/build/fs-tmp-linux-x86/json-glib",
    "command": "/usr/bin/gcc -m32 -static-libgcc -ffunction-sections -fdata-sections -I/home/white/Documents/_Cateye/frida-cateyes/build/fs-linux-x86/include -Ijson-glib/tests/array@exe -Ijson-glib/tests -I../../../json-glib/json-glib/tests -I. -I../../../json-glib/ -Ijson-glib -I/home/white/Documents/_Cateye/frida-cateyes/build/fs-linux-x86/include/glib-2.0 -I/home/white/Documents/_Cateye/frida-cateyes/build/fs-linux-x86/lib/glib-2.0/include -I/home/white/Documents/_Cateye/frida-cateyes/build/fs-linux-x86/include -fdiagnostics-color=always -pipe -D_FILE_OFFSET_BITS=64 -Wall -Winvalid-pch -std=c99 -Os -g -pthread '-DG_LOG_DOMAIN=\"Json\"' -DG_LOG_USE_STRUCTURED=1 -DJSON_COMPILATION '-DJSON_LOCALEDIR=\"/home/white/Documents/_Cateye/frida-cateyes/build/fs-linux-x86/share/locale\"' -MD -MQ 'json-glib/tests/array@exe/array.c.o' -MF 'json-glib/tests/array@exe/array.c.o.d' -o 'json-glib/tests/array@exe/array.c.o' -c ../../../json-glib/json-glib/tests/array.c",
    "file": "../../../json-glib/json-glib/tests/array.c"
  },
  {
    "directory": "/home/white/Documents/_Cateye/frida-cateyes/build/fs-tmp-linux-x86/json-glib",
    "command": "/usr/bin/gcc -m32 -static-libgcc -ffunction-sections -fdata-sections -I/home/white/Documents/_Cateye/frida-cateyes/build/fs-linux-x86/include -Ijson-glib/tests/boxed@exe -Ijson-glib/tests -I../../../json-glib/json-glib/tests -I. -I../../../json-glib/ -Ijson-glib -I/home/white/Documents/_Cateye/frida-cateyes/build/fs-linux-x86/include/glib-2.0 -I/home/white/Documents/_Cateye/frida-cateyes/build/fs-linux-x86/lib/glib-2.0/include -I/home/white/Documents/_Cateye/frida-cateyes/build/fs-linux-x86/include -fdiagnostics-color=always -pipe -D_FILE_OFFSET_BITS=64 -Wall -Winvalid-pch -std=c99 -Os -g -pthread '-DG_LOG_DOMAIN=\"Json\"' -DG_LOG_USE_STRUCTURED=1 -DJSON_COMPILATION '-DJSON_LOCALEDIR=\"/home/white/Documents/_Cateye/frida-cateyes/build/fs-linux-x86/share/locale\"' -MD -MQ 'json-glib/tests/boxed@exe/boxed.c.o' -MF 'json-glib/tests/boxed@exe/boxed.c.o.d' -o 'json-glib/tests/boxed@exe/boxed.c.o' -c ../../../json-glib/json-glib/tests/boxed.c",
    "file": "../../../json-glib/json-glib/tests/boxed.c"
  },
  {
    "directory": "/home/white/Documents/_Cateye/frida-cateyes/build/fs-tmp-linux-x86/json-glib",
    "command": "/usr/bin/gcc -m32 -static-libgcc -ffunction-sections -fdata-sections -I/home/white/Documents/_Cateye/frida-cateyes/build/fs-linux-x86/include -Ijson-glib/tests/builder@exe -Ijson-glib/tests -I../../../json-glib/json-glib/tests -I. -I../../../json-glib/ -Ijson-glib -I/home/white/Documents/_Cateye/frida-cateyes/build/fs-linux-x86/include/glib-2.0 -I/home/white/Documents/_Cateye/frida-cateyes/build/fs-linux-x86/lib/glib-2.0/include -I/home/white/Documents/_Cateye/frida-cateyes/build/fs-linux-x86/include -fdiagnostics-color=always -pipe -D_FILE_OFFSET_BITS=64 -Wall -Winvalid-pch -std=c99 -Os -g -pthread '-DG_LOG_DOMAIN=\"Json\"' -DG_LOG_USE_STRUCTURED=1 -DJSON_COMPILATION '-DJSON_LOCALEDIR=\"/home/white/Documents/_Cateye/frida-cateyes/build/fs-linux-x86/share/locale\"' -MD -MQ 'json-glib/tests/builder@exe/builder.c.o' -MF 'json-glib/tests/builder@exe/builder.c.o.d' -o 'json-glib/tests/builder@exe/builder.c.o' -c ../../../json-glib/json-glib/tests/builder.c",
    "file": "../../../json-glib/json-glib/tests/builder.c"
  },
  {
    "directory": "/home/white/Documents/_Cateye/frida-cateyes/build/fs-tmp-linux-x86/json-glib",
    "command": "/usr/bin/gcc -m32 -static-libgcc -ffunction-sections -fdata-sections -I/home/white/Documents/_Cateye/frida-cateyes/build/fs-linux-x86/include -Ijson-glib/tests/generator@exe -Ijson-glib/tests -I../../../json-glib/json-glib/tests -I. -I../../../json-glib/ -Ijson-glib -I/home/white/Documents/_Cateye/frida-cateyes/build/fs-linux-x86/include/glib-2.0 -I/home/white/Documents/_Cateye/frida-cateyes/build/fs-linux-x86/lib/glib-2.0/include -I/home/white/Documents/_Cateye/frida-cateyes/build/fs-linux-x86/include -fdiagnostics-color=always -pipe -D_FILE_OFFSET_BITS=64 -Wall -Winvalid-pch -std=c99 -Os -g -pthread '-DG_LOG_DOMAIN=\"Json\"' -DG_LOG_USE_STRUCTURED=1 -DJSON_COMPILATION '-DJSON_LOCALEDIR=\"/home/white/Documents/_Cateye/frida-cateyes/build/fs-linux-x86/share/locale\"' -MD -MQ 'json-glib/tests/generator@exe/generator.c.o' -MF 'json-glib/tests/generator@exe/generator.c.o.d' -o 'json-glib/tests/generator@exe/generator.c.o' -c ../../../json-glib/json-glib/tests/generator.c",
    "file": "../../../json-glib/json-glib/tests/generator.c"
  },
  {
    "directory": "/home/white/Documents/_Cateye/frida-cateyes/build/fs-tmp-linux-x86/json-glib",
    "command": "/usr/bin/gcc -m32 -static-libgcc -ffunction-sections -fdata-sections -I/home/white/Documents/_Cateye/frida-cateyes/build/fs-linux-x86/include -Ijson-glib/tests/gvariant@exe -Ijson-glib/tests -I../../../json-glib/json-glib/tests -I. -I../../../json-glib/ -Ijson-glib -I/home/white/Documents/_Cateye/frida-cateyes/build/fs-linux-x86/include/glib-2.0 -I/home/white/Documents/_Cateye/frida-cateyes/build/fs-linux-x86/lib/glib-2.0/include -I/home/white/Documents/_Cateye/frida-cateyes/build/fs-linux-x86/include -fdiagnostics-color=always -pipe -D_FILE_OFFSET_BITS=64 -Wall -Winvalid-pch -std=c99 -Os -g -pthread '-DG_LOG_DOMAIN=\"Json\"' -DG_LOG_USE_STRUCTURED=1 -DJSON_COMPILATION '-DJSON_LOCALEDIR=\"/home/white/Documents/_Cateye/frida-cateyes/build/fs-linux-x86/share/locale\"' -MD -MQ 'json-glib/tests/gvariant@exe/gvariant.c.o' -MF 'json-glib/tests/gvariant@exe/gvariant.c.o.d' -o 'json-glib/tests/gvariant@exe/gvariant.c.o' -c ../../../json-glib/json-glib/tests/gvariant.c",
    "file": "../../../json-glib/json-glib/tests/gvariant.c"
  },
  {
    "directory": "/home/white/Documents/_Cateye/frida-cateyes/build/fs-tmp-linux-x86/json-glib",
    "command": "/usr/bin/gcc -m32 -static-libgcc -ffunction-sections -fdata-sections -I/home/white/Documents/_Cateye/frida-cateyes/build/fs-linux-x86/include -Ijson-glib/tests/invalid@exe -Ijson-glib/tests -I../../../json-glib/json-glib/tests -I. -I../../../json-glib/ -Ijson-glib -I/home/white/Documents/_Cateye/frida-cateyes/build/fs-linux-x86/include/glib-2.0 -I/home/white/Documents/_Cateye/frida-cateyes/build/fs-linux-x86/lib/glib-2.0/include -I/home/white/Documents/_Cateye/frida-cateyes/build/fs-linux-x86/include -fdiagnostics-color=always -pipe -D_FILE_OFFSET_BITS=64 -Wall -Winvalid-pch -std=c99 -Os -g -pthread '-DG_LOG_DOMAIN=\"Json\"' -DG_LOG_USE_STRUCTURED=1 -DJSON_COMPILATION '-DJSON_LOCALEDIR=\"/home/white/Documents/_Cateye/frida-cateyes/build/fs-linux-x86/share/locale\"' -MD -MQ 'json-glib/tests/invalid@exe/invalid.c.o' -MF 'json-glib/tests/invalid@exe/invalid.c.o.d' -o 'json-glib/tests/invalid@exe/invalid.c.o' -c ../../../json-glib/json-glib/tests/invalid.c",
    "file": "../../../json-glib/json-glib/tests/invalid.c"
  },
  {
    "directory": "/home/white/Documents/_Cateye/frida-cateyes/build/fs-tmp-linux-x86/json-glib",
    "command": "/usr/bin/gcc -m32 -static-libgcc -ffunction-sections -fdata-sections -I/home/white/Documents/_Cateye/frida-cateyes/build/fs-linux-x86/include -Ijson-glib/tests/node@exe -Ijson-glib/tests -I../../../json-glib/json-glib/tests -I. -I../../../json-glib/ -Ijson-glib -I/home/white/Documents/_Cateye/frida-cateyes/build/fs-linux-x86/include/glib-2.0 -I/home/white/Documents/_Cateye/frida-cateyes/build/fs-linux-x86/lib/glib-2.0/include -I/home/white/Documents/_Cateye/frida-cateyes/build/fs-linux-x86/include -fdiagnostics-color=always -pipe -D_FILE_OFFSET_BITS=64 -Wall -Winvalid-pch -std=c99 -Os -g -pthread '-DG_LOG_DOMAIN=\"Json\"' -DG_LOG_USE_STRUCTURED=1 -DJSON_COMPILATION '-DJSON_LOCALEDIR=\"/home/white/Documents/_Cateye/frida-cateyes/build/fs-linux-x86/share/locale\"' -MD -MQ 'json-glib/tests/node@exe/node.c.o' -MF 'json-glib/tests/node@exe/node.c.o.d' -o 'json-glib/tests/node@exe/node.c.o' -c ../../../json-glib/json-glib/tests/node.c",
    "file": "../../../json-glib/json-glib/tests/node.c"
  },
  {
    "directory": "/home/white/Documents/_Cateye/frida-cateyes/build/fs-tmp-linux-x86/json-glib",
    "command": "/usr/bin/gcc -m32 -static-libgcc -ffunction-sections -fdata-sections -I/home/white/Documents/_Cateye/frida-cateyes/build/fs-linux-x86/include -Ijson-glib/tests/object@exe -Ijson-glib/tests -I../../../json-glib/json-glib/tests -I. -I../../../json-glib/ -Ijson-glib -I/home/white/Documents/_Cateye/frida-cateyes/build/fs-linux-x86/include/glib-2.0 -I/home/white/Documents/_Cateye/frida-cateyes/build/fs-linux-x86/lib/glib-2.0/include -I/home/white/Documents/_Cateye/frida-cateyes/build/fs-linux-x86/include -fdiagnostics-color=always -pipe -D_FILE_OFFSET_BITS=64 -Wall -Winvalid-pch -std=c99 -Os -g -pthread '-DG_LOG_DOMAIN=\"Json\"' -DG_LOG_USE_STRUCTURED=1 -DJSON_COMPILATION '-DJSON_LOCALEDIR=\"/home/white/Documents/_Cateye/frida-cateyes/build/fs-linux-x86/share/locale\"' -MD -MQ 'json-glib/tests/object@exe/object.c.o' -MF 'json-glib/tests/object@exe/object.c.o.d' -o 'json-glib/tests/object@exe/object.c.o' -c ../../../json-glib/json-glib/tests/object.c",
    "file": "../../../json-glib/json-glib/tests/object.c"
  },
  {
    "directory": "/home/white/Documents/_Cateye/frida-cateyes/build/fs-tmp-linux-x86/json-glib",
    "command": "/usr/bin/gcc -m32 -static-libgcc -ffunction-sections -fdata-sections -I/home/white/Documents/_Cateye/frida-cateyes/build/fs-linux-x86/include -Ijson-glib/tests/parser@exe -Ijson-glib/tests -I../../../json-glib/json-glib/tests -I. -I../../../json-glib/ -Ijson-glib -I/home/white/Documents/_Cateye/frida-cateyes/build/fs-linux-x86/include/glib-2.0 -I/home/white/Documents/_Cateye/frida-cateyes/build/fs-linux-x86/lib/glib-2.0/include -I/home/white/Documents/_Cateye/frida-cateyes/build/fs-linux-x86/include -fdiagnostics-color=always -pipe -D_FILE_OFFSET_BITS=64 -Wall -Winvalid-pch -std=c99 -Os -g -pthread '-DG_LOG_DOMAIN=\"Json\"' -DG_LOG_USE_STRUCTURED=1 -DJSON_COMPILATION '-DJSON_LOCALEDIR=\"/home/white/Documents/_Cateye/frida-cateyes/build/fs-linux-x86/share/locale\"' -MD -MQ 'json-glib/tests/parser@exe/parser.c.o' -MF 'json-glib/tests/parser@exe/parser.c.o.d' -o 'json-glib/tests/parser@exe/parser.c.o' -c ../../../json-glib/json-glib/tests/parser.c",
    "file": "../../../json-glib/json-glib/tests/parser.c"
  },
  {
    "directory": "/home/white/Documents/_Cateye/frida-cateyes/build/fs-tmp-linux-x86/json-glib",
    "command": "/usr/bin/gcc -m32 -static-libgcc -ffunction-sections -fdata-sections -I/home/white/Documents/_Cateye/frida-cateyes/build/fs-linux-x86/include -Ijson-glib/tests/path@exe -Ijson-glib/tests -I../../../json-glib/json-glib/tests -I. -I../../../json-glib/ -Ijson-glib -I/home/white/Documents/_Cateye/frida-cateyes/build/fs-linux-x86/include/glib-2.0 -I/home/white/Documents/_Cateye/frida-cateyes/build/fs-linux-x86/lib/glib-2.0/include -I/home/white/Documents/_Cateye/frida-cateyes/build/fs-linux-x86/include -fdiagnostics-color=always -pipe -D_FILE_OFFSET_BITS=64 -Wall -Winvalid-pch -std=c99 -Os -g -pthread '-DG_LOG_DOMAIN=\"Json\"' -DG_LOG_USE_STRUCTURED=1 -DJSON_COMPILATION '-DJSON_LOCALEDIR=\"/home/white/Documents/_Cateye/frida-cateyes/build/fs-linux-x86/share/locale\"' -MD -MQ 'json-glib/tests/path@exe/path.c.o' -MF 'json-glib/tests/path@exe/path.c.o.d' -o 'json-glib/tests/path@exe/path.c.o' -c ../../../json-glib/json-glib/tests/path.c",
    "file": "../../../json-glib/json-glib/tests/path.c"
  },
  {
    "directory": "/home/white/Documents/_Cateye/frida-cateyes/build/fs-tmp-linux-x86/json-glib",
    "command": "/usr/bin/gcc -m32 -static-libgcc -ffunction-sections -fdata-sections -I/home/white/Documents/_Cateye/frida-cateyes/build/fs-linux-x86/include -Ijson-glib/tests/reader@exe -Ijson-glib/tests -I../../../json-glib/json-glib/tests -I. -I../../../json-glib/ -Ijson-glib -I/home/white/Documents/_Cateye/frida-cateyes/build/fs-linux-x86/include/glib-2.0 -I/home/white/Documents/_Cateye/frida-cateyes/build/fs-linux-x86/lib/glib-2.0/include -I/home/white/Documents/_Cateye/frida-cateyes/build/fs-linux-x86/include -fdiagnostics-color=always -pipe -D_FILE_OFFSET_BITS=64 -Wall -Winvalid-pch -std=c99 -Os -g -pthread '-DG_LOG_DOMAIN=\"Json\"' -DG_LOG_USE_STRUCTURED=1 -DJSON_COMPILATION '-DJSON_LOCALEDIR=\"/home/white/Documents/_Cateye/frida-cateyes/build/fs-linux-x86/share/locale\"' -MD -MQ 'json-glib/tests/reader@exe/reader.c.o' -MF 'json-glib/tests/reader@exe/reader.c.o.d' -o 'json-glib/tests/reader@exe/reader.c.o' -c ../../../json-glib/json-glib/tests/reader.c",
    "file": "../../../json-glib/json-glib/tests/reader.c"
  },
  {
    "directory": "/home/white/Documents/_Cateye/frida-cateyes/build/fs-tmp-linux-x86/json-glib",
    "command": "/usr/bin/gcc -m32 -static-libgcc -ffunction-sections -fdata-sections -I/home/white/Documents/_Cateye/frida-cateyes/build/fs-linux-x86/include -Ijson-glib/tests/serialize-simple@exe -Ijson-glib/tests -I../../../json-glib/json-glib/tests -I. -I../../../json-glib/ -Ijson-glib -I/home/white/Documents/_Cateye/frida-cateyes/build/fs-linux-x86/include/glib-2.0 -I/home/white/Documents/_Cateye/frida-cateyes/build/fs-linux-x86/lib/glib-2.0/include -I/home/white/Documents/_Cateye/frida-cateyes/build/fs-linux-x86/include -fdiagnostics-color=always -pipe -D_FILE_OFFSET_BITS=64 -Wall -Winvalid-pch -std=c99 -Os -g -pthread '-DG_LOG_DOMAIN=\"Json\"' -DG_LOG_USE_STRUCTURED=1 -DJSON_COMPILATION '-DJSON_LOCALEDIR=\"/home/white/Documents/_Cateye/frida-cateyes/build/fs-linux-x86/share/locale\"' -MD -MQ 'json-glib/tests/serialize-simple@exe/serialize-simple.c.o' -MF 'json-glib/tests/serialize-simple@exe/serialize-simple.c.o.d' -o 'json-glib/tests/serialize-simple@exe/serialize-simple.c.o' -c ../../../json-glib/json-glib/tests/serialize-simple.c",
    "file": "../../../json-glib/json-glib/tests/serialize-simple.c"
  },
  {
    "directory": "/home/white/Documents/_Cateye/frida-cateyes/build/fs-tmp-linux-x86/json-glib",
    "command": "/usr/bin/gcc -m32 -static-libgcc -ffunction-sections -fdata-sections -I/home/white/Documents/_Cateye/frida-cateyes/build/fs-linux-x86/include -Ijson-glib/tests/serialize-complex@exe -Ijson-glib/tests -I../../../json-glib/json-glib/tests -I. -I../../../json-glib/ -Ijson-glib -I/home/white/Documents/_Cateye/frida-cateyes/build/fs-linux-x86/include/glib-2.0 -I/home/white/Documents/_Cateye/frida-cateyes/build/fs-linux-x86/lib/glib-2.0/include -I/home/white/Documents/_Cateye/frida-cateyes/build/fs-linux-x86/include -fdiagnostics-color=always -pipe -D_FILE_OFFSET_BITS=64 -Wall -Winvalid-pch -std=c99 -Os -g -pthread '-DG_LOG_DOMAIN=\"Json\"' -DG_LOG_USE_STRUCTURED=1 -DJSON_COMPILATION '-DJSON_LOCALEDIR=\"/home/white/Documents/_Cateye/frida-cateyes/build/fs-linux-x86/share/locale\"' -MD -MQ 'json-glib/tests/serialize-complex@exe/serialize-complex.c.o' -MF 'json-glib/tests/serialize-complex@exe/serialize-complex.c.o.d' -o 'json-glib/tests/serialize-complex@exe/serialize-complex.c.o' -c ../../../json-glib/json-glib/tests/serialize-complex.c",
    "file": "../../../json-glib/json-glib/tests/serialize-complex.c"
  },
  {
    "directory": "/home/white/Documents/_Cateye/frida-cateyes/build/fs-tmp-linux-x86/json-glib",
    "command": "/usr/bin/gcc -m32 -static-libgcc -ffunction-sections -fdata-sections -I/home/white/Documents/_Cateye/frida-cateyes/build/fs-linux-x86/include -Ijson-glib/tests/serialize-full@exe -Ijson-glib/tests -I../../../json-glib/json-glib/tests -I. -I../../../json-glib/ -Ijson-glib -I/home/white/Documents/_Cateye/frida-cateyes/build/fs-linux-x86/include/glib-2.0 -I/home/white/Documents/_Cateye/frida-cateyes/build/fs-linux-x86/lib/glib-2.0/include -I/home/white/Documents/_Cateye/frida-cateyes/build/fs-linux-x86/include -fdiagnostics-color=always -pipe -D_FILE_OFFSET_BITS=64 -Wall -Winvalid-pch -std=c99 -Os -g -pthread '-DG_LOG_DOMAIN=\"Json\"' -DG_LOG_USE_STRUCTURED=1 -DJSON_COMPILATION '-DJSON_LOCALEDIR=\"/home/white/Documents/_Cateye/frida-cateyes/build/fs-linux-x86/share/locale\"' -MD -MQ 'json-glib/tests/serialize-full@exe/serialize-full.c.o' -MF 'json-glib/tests/serialize-full@exe/serialize-full.c.o.d' -o 'json-glib/tests/serialize-full@exe/serialize-full.c.o' -c ../../../json-glib/json-glib/tests/serialize-full.c",
    "file": "../../../json-glib/json-glib/tests/serialize-full.c"
  }
]
