This file contains any messages produced by compilers while
running configure, to aid debugging if configure makes a mistake.

It was created by configure, which was
generated by GNU Autoconf 2.69.  Invocation command line was

  $ ../../../libdwarf/libdwarf/configure 

## --------- ##
## Platform. ##
## --------- ##

hostname = white-All-Series
uname -m = x86_64
uname -r = 4.4.0-128-generic
uname -s = Linux
uname -v = #154-Ubuntu SMP Fri May 25 14:15:18 UTC 2018

/usr/bin/uname -p = unknown
/bin/uname -X     = unknown

/bin/arch              = unknown
/usr/bin/arch -k       = unknown
/usr/convex/getsysinfo = unknown
/usr/bin/hostinfo      = unknown
/bin/machine           = unknown
/usr/bin/oslevel       = unknown
/bin/universe          = unknown

PATH: /home/white/Documents/_Cateye/frida-cateyes/build/fs-toolchain-linux-x86_64/bin
PATH: /home/white/.local/share/umake/bin
PATH: /home/white/bin
PATH: /opt/maven/bin
PATH: /usr/local/sbin
PATH: /usr/local/bin
PATH: /usr/sbin
PATH: /usr/bin
PATH: /sbin
PATH: /bin
PATH: /usr/games
PATH: /usr/local/games
PATH: /snap/bin
PATH: /usr/local/go/bin
PATH: /home/white/go/bin
PATH: /usr/lib/jvm/java-8-oracle/bin
PATH: /usr/lib/jvm/java-8-oracle/db/bin
PATH: /usr/lib/jvm/java-8-oracle/jre/bin
PATH: /usr/local/go/bin
PATH: /home/white/.rvm/bin
PATH: /home/white/.rvm/bin


## ----------- ##
## Core tests. ##
## ----------- ##

configure:1971: loading site script /home/white/Documents/_Cateye/frida-cateyes/build/fs-config-linux-x86.site
| # config.site for configure
| 
| frida_host_platform=linux
| frida_host_arch=x86
| frida_host_platform_arch=linux-x86
| frida_prefix=/home/white/Documents/_Cateye/frida-cateyes/build/fs-linux-x86
| 
| test "$prefix" = NONE && prefix="$frida_prefix"
| 
| enable_nls=no
| enable_silent_rules=yes
| 
| frida_warning_flags="-Wall"
| 
| case "$PACKAGE_TARNAME" in
|   capstone)
|     # Takes ages to compile with debug information
|     frida_flags="-Os -pipe"
|     ;;
|   *)
|     frida_flags="-Os -pipe -g3"
|     ;;
| esac
| 
| case $frida_host_platform_arch in
|   linux-arm)
|     host_alias="arm-linux-gnueabi"
|     cross_compiling=yes
|     ;;
|   linux-armhf)
|     host_alias="arm-linux-gnueabihf"
|     cross_compiling=yes
|     ;;
|   linux-mips)
|     host_alias="mips-linux-uclibc"
|     cross_compiling=yes
|     ;;
|   linux-mipsel)
|     host_alias="mipsel-linux-uclibc"
|     cross_compiling=yes
|     ;;
|   linux-x86)
|     host_alias="i686-linux-gnu"
|     cross_compiling=yes
|     ;;
|   linux-x86_64)
|     host_alias="x86_64-linux-gnu"
|     cross_compiling=no
|     ;;
|   qnx-x86)
|     host_alias="i486-pc-nto-qnx6.6.0"
|     cross_compiling=yes
|     ;;
|   qnx-armeabi)
|     host_alias="arm-unknown-nto-qnx6.5.0eabi"
|     cross_compiling=yes
|     ;;
|   qnx-arm)
|     host_alias="arm-unknown-nto-qnx6.5.0"
|     cross_compiling=yes
|     ;;
|   android-x86)
|     if [ -n "$FRIDA_LEGACY_AUTOTOOLS" ]; then
|       host_alias="i686-linux-gnu"
|     else
|       host_alias="i686-none-linux-android"
|     fi
|     cross_compiling=yes
|     ;;
|   android-x86_64)
|     if [ -n "$FRIDA_LEGACY_AUTOTOOLS" ]; then
|       host_alias="x86_64-linux-gnu"
|     else
|       host_alias="x86_64-none-linux-android"
|     fi
|     cross_compiling=yes
|     ;;
|   android-arm)
|     if [ -n "$FRIDA_LEGACY_AUTOTOOLS" ]; then
|       host_alias="armv7-linux-eabi"
|     else
|       host_alias="armv7-none-linux-androideabi"
|     fi
|     cross_compiling=yes
| 
|     frida_flags="$frida_flags -mthumb"
|     ;;
|   android-arm64)
|     if [ -n "$FRIDA_LEGACY_AUTOTOOLS" ]; then
|       host_alias="aarch64-linux-gnu"
|     else
|       host_alias="aarch64-none-linux-android"
|     fi
|     cross_compiling=yes
|     ;;
|   macos-x86|ios-x86)
|     host_alias="i686-apple-darwin"
|     cross_compiling=yes
|     ;;
|   ios-x86_64)
|     host_alias="x86_64-apple-darwin"
|     cross_compiling=yes
|     ;;
|   ios-arm)
|     host_alias="arm-apple-darwin"
|     cross_compiling=yes
| 
|     frida_flags="$frida_flags -mthumb"
|     ;;
|   ios-arm64)
|     host_alias="aarch64-apple-darwin"
|     cross_compiling=yes
|     ;;
| esac
| 
| case $frida_host_platform_arch in
|   android-*)
|     ac_cv_sys_file_offset_bits=no
|     ;;
| esac
| 
| # Work around a bug in stdint generation m4, where CFLAGS is overwritten,
| # causing this check to conclude that there's no stdint.h support...
| ac_cv_header_stdint_t=yes
| 
| if [ -x /usr/bin/install ]; then
|   ac_cv_path_install="/usr/bin/install -p"
| fi
| 
| case "$PACKAGE_TARNAME" in
|   'xz')
|     enable_shared=no
|     enable_static=yes
|     ;;
|   'libunwind')
|     enable_shared=no
|     enable_static=yes
|     enable_coredump=no
|     enable_ptrace=no
|     enable_setjmp=no
|     enable_debug=no
|     enable_msabi_support=no
|     enable_minidebuginfo=yes
| 
|     CFLAGS="$CFLAGS -I$frida_prefix/include"
|     LDFLAGS="$LDFLAGS -L$frida_prefix/lib"
|     ;;
|   'libffi')
|     CFLAGS="$CFLAGS -DFFI_MMAP_EXEC_WRIT=1 -DFFI_MMAP_EXEC_SELINUX=0"
| 
|     enable_docs=no
|     enable_multi_os_directory=no
| 
|     enable_shared=no
|     enable_static=yes
|     ;;
|   'glib')
|     with_pcre=internal
|     enable_debug=minimum
|     enable_dtrace=no
|     enable_libmount=no
|     enable_tests=no
| 
|     enable_shared=no
|     enable_static=yes
| 
|     glib_cv_stack_grows=no
|     glib_cv_uscore=no
| 
|     case $frida_host_platform in
|       android|qnx)
|         ac_cv_func_posix_getgrgid_r=no
|         ac_cv_func_posix_getpwuid_r=no
|         ;;
|       *)
|         ac_cv_func_posix_getgrgid_r=yes
|         ac_cv_func_posix_getpwuid_r=yes
|         ;;
|     esac
| 
|     case $frida_host_platform in
|       linux)
|         glib_cv_have_qsort_r=yes
|         ;;
|       macos|ios|android|qnx)
|         glib_cv_have_qsort_r=no
|         ;;
|     esac
| 
|     case $frida_host_platform in
|       linux|android|macos|ios|qnx)
|         enable_proxy_libintl=yes
|         ;;
|     esac
| 
|     CFLAGS="$CFLAGS -I$frida_prefix/include"
|     LDFLAGS="$LDFLAGS -L$frida_prefix/lib"
|     ;;
|   'libgee')
|     enable_shared=no
|     enable_static=yes
|     enable_internal_asserts=no
|     enable_consistency_check=no
| 
|     CFLAGS="$CFLAGS -Wno-error=implicit-function-declaration"
|     ;;
|   'vala'|'json-glib')
|     enable_shared=no
|     enable_static=yes
|     ;;
|   'capstone')
|     enable_shared=no
|     enable_static=yes
|     frida_flags="$frida_warning_flags $frida_flags"
|     ;;
|   *)
|     frida_flags="$frida_warning_flags $frida_flags"
|     ;;
| esac
| 
| CFLAGS="$CFLAGS $frida_flags"
| CXXFLAGS="$CXXFLAGS $frida_flags"
| OBJCFLAGS="$OBJCFLAGS $frida_flags"
configure:2118: checking for gcc
configure:2145: result: /usr/bin/gcc -static-libgcc
configure:2157: WARNING: using cross tools not prefixed with host triplet
configure:2374: checking for C compiler version
configure:2383: /usr/bin/gcc -static-libgcc --version >&5
gcc (Ubuntu 6.4.0-17ubuntu1~16.04) 6.4.0 20180424
Copyright (C) 2017 Free Software Foundation, Inc.
This is free software; see the source for copying conditions.  There is NO
warranty; not even for MERCHANTABILITY or FITNESS FOR A PARTICULAR PURPOSE.

configure:2394: $? = 0
configure:2383: /usr/bin/gcc -static-libgcc -v >&5
Using built-in specs.
COLLECT_GCC=/usr/bin/gcc
COLLECT_LTO_WRAPPER=/usr/lib/gcc/x86_64-linux-gnu/6/lto-wrapper
Target: x86_64-linux-gnu
Configured with: ../src/configure -v --with-pkgversion='Ubuntu 6.4.0-17ubuntu1~16.04' --with-bugurl=file:///usr/share/doc/gcc-6/README.Bugs --enable-languages=c,ada,c++,java,go,d,fortran,objc,obj-c++ --prefix=/usr --with-as=/usr/bin/x86_64-linux-gnu-as --with-ld=/usr/bin/x86_64-linux-gnu-ld --program-suffix=-6 --program-prefix=x86_64-linux-gnu- --enable-shared --enable-linker-build-id --libexecdir=/usr/lib --without-included-gettext --enable-threads=posix --libdir=/usr/lib --enable-nls --with-sysroot=/ --enable-clocale=gnu --enable-libstdcxx-debug --enable-libstdcxx-time=yes --with-default-libstdcxx-abi=new --enable-gnu-unique-object --disable-vtable-verify --enable-libmpx --enable-plugin --with-system-zlib --disable-browser-plugin --enable-java-awt=gtk --enable-gtk-cairo --with-java-home=/usr/lib/jvm/java-1.5.0-gcj-6-amd64/jre --enable-java-home --with-jvm-root-dir=/usr/lib/jvm/java-1.5.0-gcj-6-amd64 --with-jvm-jar-dir=/usr/lib/jvm-exports/java-1.5.0-gcj-6-amd64 --with-arch-directory=amd64 --with-ecj-jar=/usr/share/java/eclipse-ecj.jar --with-target-system-zlib --enable-objc-gc=auto --enable-multiarch --disable-werror --with-arch-32=i686 --with-abi=m64 --with-multilib-list=m32,m64,mx32 --enable-multilib --with-tune=generic --enable-checking=release --build=x86_64-linux-gnu --host=x86_64-linux-gnu --target=x86_64-linux-gnu
Thread model: posix
gcc version 6.4.0 20180424 (Ubuntu 6.4.0-17ubuntu1~16.04) 
configure:2394: $? = 0
configure:2383: /usr/bin/gcc -static-libgcc -V >&5
gcc: error: unrecognized command line option '-V'
gcc: fatal error: no input files
compilation terminated.
configure:2394: $? = 1
configure:2383: /usr/bin/gcc -static-libgcc -qversion >&5
gcc: error: unrecognized command line option '-qversion'; did you mean '--version'?
gcc: fatal error: no input files
compilation terminated.
configure:2394: $? = 1
configure:2414: checking whether the C compiler works
configure:2436: /usr/bin/gcc -static-libgcc -fPIC -m32 -ffunction-sections -fdata-sections -I/home/white/Documents/_Cateye/frida-cateyes/build/fs-linux-x86/include -Wall -Os -pipe -g3  -I/home/white/Documents/_Cateye/frida-cateyes/build/fs-linux-x86/include -m32 -Wl,--gc-sections -Wl,-z,noexecstack -L/home/white/Documents/_Cateye/frida-cateyes/build/fs-linux-x86/lib conftest.c  >&5
configure:2440: $? = 0
configure:2488: result: yes
configure:2491: checking for C compiler default output file name
configure:2493: result: a.out
configure:2499: checking for suffix of executables
configure:2506: /usr/bin/gcc -static-libgcc -o conftest -fPIC -m32 -ffunction-sections -fdata-sections -I/home/white/Documents/_Cateye/frida-cateyes/build/fs-linux-x86/include -Wall -Os -pipe -g3  -I/home/white/Documents/_Cateye/frida-cateyes/build/fs-linux-x86/include -m32 -Wl,--gc-sections -Wl,-z,noexecstack -L/home/white/Documents/_Cateye/frida-cateyes/build/fs-linux-x86/lib conftest.c  >&5
configure:2510: $? = 0
configure:2532: result: 
configure:2554: checking whether we are cross compiling
configure:2592: result: yes
configure:2597: checking for suffix of object files
configure:2619: /usr/bin/gcc -static-libgcc -c -fPIC -m32 -ffunction-sections -fdata-sections -I/home/white/Documents/_Cateye/frida-cateyes/build/fs-linux-x86/include -Wall -Os -pipe -g3  -I/home/white/Documents/_Cateye/frida-cateyes/build/fs-linux-x86/include conftest.c >&5
configure:2623: $? = 0
configure:2644: result: o
configure:2648: checking whether we are using the GNU C compiler
configure:2667: /usr/bin/gcc -static-libgcc -c -fPIC -m32 -ffunction-sections -fdata-sections -I/home/white/Documents/_Cateye/frida-cateyes/build/fs-linux-x86/include -Wall -Os -pipe -g3  -I/home/white/Documents/_Cateye/frida-cateyes/build/fs-linux-x86/include conftest.c >&5
configure:2667: $? = 0
configure:2676: result: yes
configure:2685: checking whether /usr/bin/gcc -static-libgcc accepts -g
configure:2705: /usr/bin/gcc -static-libgcc -c -g  -I/home/white/Documents/_Cateye/frida-cateyes/build/fs-linux-x86/include conftest.c >&5
configure:2705: $? = 0
configure:2746: result: yes
configure:2763: checking for /usr/bin/gcc -static-libgcc option to accept ISO C89
configure:2826: /usr/bin/gcc -static-libgcc  -c -fPIC -m32 -ffunction-sections -fdata-sections -I/home/white/Documents/_Cateye/frida-cateyes/build/fs-linux-x86/include -Wall -Os -pipe -g3  -I/home/white/Documents/_Cateye/frida-cateyes/build/fs-linux-x86/include conftest.c >&5
configure:2826: $? = 0
configure:2839: result: none needed
configure:2865: checking how to run the C preprocessor
configure:2935: result: /usr/bin/cpp
configure:2955: /usr/bin/cpp  -I/home/white/Documents/_Cateye/frida-cateyes/build/fs-linux-x86/include conftest.c
configure:2955: $? = 0
configure:2969: /usr/bin/cpp  -I/home/white/Documents/_Cateye/frida-cateyes/build/fs-linux-x86/include conftest.c
conftest.c:9:28: fatal error: ac_nonexistent.h: No such file or directory
compilation terminated.
configure:2969: $? = 1
configure: failed program was:
| /* confdefs.h */
| #define PACKAGE_NAME ""
| #define PACKAGE_TARNAME ""
| #define PACKAGE_VERSION ""
| #define PACKAGE_STRING ""
| #define PACKAGE_BUGREPORT ""
| #define PACKAGE_URL ""
| /* end confdefs.h.  */
| #include <ac_nonexistent.h>
configure:2998: checking for grep that handles long lines and -e
configure:3056: result: /bin/grep
configure:3061: checking for egrep
configure:3123: result: /bin/grep -E
configure:3128: checking for ANSI C header files
configure:3148: /usr/bin/gcc -static-libgcc -c -fPIC -m32 -ffunction-sections -fdata-sections -I/home/white/Documents/_Cateye/frida-cateyes/build/fs-linux-x86/include -Wall -Os -pipe -g3  -I/home/white/Documents/_Cateye/frida-cateyes/build/fs-linux-x86/include conftest.c >&5
configure:3148: $? = 0
configure:3232: result: yes
configure:3245: checking for sys/types.h
configure:3245: /usr/bin/gcc -static-libgcc -c -fPIC -m32 -ffunction-sections -fdata-sections -I/home/white/Documents/_Cateye/frida-cateyes/build/fs-linux-x86/include -Wall -Os -pipe -g3  -I/home/white/Documents/_Cateye/frida-cateyes/build/fs-linux-x86/include conftest.c >&5
configure:3245: $? = 0
configure:3245: result: yes
configure:3245: checking for sys/stat.h
configure:3245: /usr/bin/gcc -static-libgcc -c -fPIC -m32 -ffunction-sections -fdata-sections -I/home/white/Documents/_Cateye/frida-cateyes/build/fs-linux-x86/include -Wall -Os -pipe -g3  -I/home/white/Documents/_Cateye/frida-cateyes/build/fs-linux-x86/include conftest.c >&5
configure:3245: $? = 0
configure:3245: result: yes
configure:3245: checking for stdlib.h
configure:3245: /usr/bin/gcc -static-libgcc -c -fPIC -m32 -ffunction-sections -fdata-sections -I/home/white/Documents/_Cateye/frida-cateyes/build/fs-linux-x86/include -Wall -Os -pipe -g3  -I/home/white/Documents/_Cateye/frida-cateyes/build/fs-linux-x86/include conftest.c >&5
configure:3245: $? = 0
configure:3245: result: yes
configure:3245: checking for string.h
configure:3245: /usr/bin/gcc -static-libgcc -c -fPIC -m32 -ffunction-sections -fdata-sections -I/home/white/Documents/_Cateye/frida-cateyes/build/fs-linux-x86/include -Wall -Os -pipe -g3  -I/home/white/Documents/_Cateye/frida-cateyes/build/fs-linux-x86/include conftest.c >&5
configure:3245: $? = 0
configure:3245: result: yes
configure:3245: checking for memory.h
configure:3245: /usr/bin/gcc -static-libgcc -c -fPIC -m32 -ffunction-sections -fdata-sections -I/home/white/Documents/_Cateye/frida-cateyes/build/fs-linux-x86/include -Wall -Os -pipe -g3  -I/home/white/Documents/_Cateye/frida-cateyes/build/fs-linux-x86/include conftest.c >&5
configure:3245: $? = 0
configure:3245: result: yes
configure:3245: checking for strings.h
configure:3245: /usr/bin/gcc -static-libgcc -c -fPIC -m32 -ffunction-sections -fdata-sections -I/home/white/Documents/_Cateye/frida-cateyes/build/fs-linux-x86/include -Wall -Os -pipe -g3  -I/home/white/Documents/_Cateye/frida-cateyes/build/fs-linux-x86/include conftest.c >&5
configure:3245: $? = 0
configure:3245: result: yes
configure:3245: checking for inttypes.h
configure:3245: /usr/bin/gcc -static-libgcc -c -fPIC -m32 -ffunction-sections -fdata-sections -I/home/white/Documents/_Cateye/frida-cateyes/build/fs-linux-x86/include -Wall -Os -pipe -g3  -I/home/white/Documents/_Cateye/frida-cateyes/build/fs-linux-x86/include conftest.c >&5
configure:3245: $? = 0
configure:3245: result: yes
configure:3245: checking for stdint.h
configure:3245: /usr/bin/gcc -static-libgcc -c -fPIC -m32 -ffunction-sections -fdata-sections -I/home/white/Documents/_Cateye/frida-cateyes/build/fs-linux-x86/include -Wall -Os -pipe -g3  -I/home/white/Documents/_Cateye/frida-cateyes/build/fs-linux-x86/include conftest.c >&5
configure:3245: $? = 0
configure:3245: result: yes
configure:3245: checking for unistd.h
configure:3245: /usr/bin/gcc -static-libgcc -c -fPIC -m32 -ffunction-sections -fdata-sections -I/home/white/Documents/_Cateye/frida-cateyes/build/fs-linux-x86/include -Wall -Os -pipe -g3  -I/home/white/Documents/_Cateye/frida-cateyes/build/fs-linux-x86/include conftest.c >&5
configure:3245: $? = 0
configure:3245: result: yes
configure:3257: checking whether byte ordering is bigendian
configure:3272: /usr/bin/gcc -static-libgcc -c -fPIC -m32 -ffunction-sections -fdata-sections -I/home/white/Documents/_Cateye/frida-cateyes/build/fs-linux-x86/include -Wall -Os -pipe -g3  -I/home/white/Documents/_Cateye/frida-cateyes/build/fs-linux-x86/include conftest.c >&5
conftest.c:20:9: error: unknown type name 'not'
         not a universal capable compiler
         ^~~
conftest.c:20:15: error: expected '=', ',', ';', 'asm' or '__attribute__' before 'universal'
         not a universal capable compiler
               ^~~~~~~~~
conftest.c:20:15: error: unknown type name 'universal'
configure:3272: $? = 1
configure: failed program was:
| /* confdefs.h */
| #define PACKAGE_NAME ""
| #define PACKAGE_TARNAME ""
| #define PACKAGE_VERSION ""
| #define PACKAGE_STRING ""
| #define PACKAGE_BUGREPORT ""
| #define PACKAGE_URL ""
| #define STDC_HEADERS 1
| #define HAVE_SYS_TYPES_H 1
| #define HAVE_SYS_STAT_H 1
| #define HAVE_STDLIB_H 1
| #define HAVE_STRING_H 1
| #define HAVE_MEMORY_H 1
| #define HAVE_STRINGS_H 1
| #define HAVE_INTTYPES_H 1
| #define HAVE_STDINT_H 1
| #define HAVE_UNISTD_H 1
| /* end confdefs.h.  */
| #ifndef __APPLE_CC__
| 	       not a universal capable compiler
| 	     #endif
| 	     typedef int dummy;
| 
configure:3317: /usr/bin/gcc -static-libgcc -c -fPIC -m32 -ffunction-sections -fdata-sections -I/home/white/Documents/_Cateye/frida-cateyes/build/fs-linux-x86/include -Wall -Os -pipe -g3  -I/home/white/Documents/_Cateye/frida-cateyes/build/fs-linux-x86/include conftest.c >&5
configure:3317: $? = 0
configure:3335: /usr/bin/gcc -static-libgcc -c -fPIC -m32 -ffunction-sections -fdata-sections -I/home/white/Documents/_Cateye/frida-cateyes/build/fs-linux-x86/include -Wall -Os -pipe -g3  -I/home/white/Documents/_Cateye/frida-cateyes/build/fs-linux-x86/include conftest.c >&5
conftest.c: In function 'main':
conftest.c:26:4: error: unknown type name 'not'
    not big endian
    ^~~
conftest.c:26:12: error: expected '=', ',', ';', 'asm' or '__attribute__' before 'endian'
    not big endian
            ^~~~~~
configure:3335: $? = 1
configure: failed program was:
| /* confdefs.h */
| #define PACKAGE_NAME ""
| #define PACKAGE_TARNAME ""
| #define PACKAGE_VERSION ""
| #define PACKAGE_STRING ""
| #define PACKAGE_BUGREPORT ""
| #define PACKAGE_URL ""
| #define STDC_HEADERS 1
| #define HAVE_SYS_TYPES_H 1
| #define HAVE_SYS_STAT_H 1
| #define HAVE_STDLIB_H 1
| #define HAVE_STRING_H 1
| #define HAVE_MEMORY_H 1
| #define HAVE_STRINGS_H 1
| #define HAVE_INTTYPES_H 1
| #define HAVE_STDINT_H 1
| #define HAVE_UNISTD_H 1
| /* end confdefs.h.  */
| #include <sys/types.h>
| 		#include <sys/param.h>
| 
| int
| main ()
| {
| #if BYTE_ORDER != BIG_ENDIAN
| 		 not big endian
| 		#endif
| 
|   ;
|   return 0;
| }
configure:3463: result: no
configure:3482: checking whether /usr/bin/gcc -static-libgcc needs -traditional
configure:3516: result: no
configure:3566: checking for a BSD-compatible install
configure:3634: result: /usr/bin/install -p
configure:3688: checking for ranlib
configure:3715: result: /usr/bin/ranlib
configure:3780: checking for ar
configure:3807: result: /usr/bin/ar
configure:3834: checking alloca.h usability
configure:3834: /usr/bin/gcc -static-libgcc -c -fPIC -m32 -ffunction-sections -fdata-sections -I/home/white/Documents/_Cateye/frida-cateyes/build/fs-linux-x86/include -Wall -Os -pipe -g3  -I/home/white/Documents/_Cateye/frida-cateyes/build/fs-linux-x86/include conftest.c >&5
configure:3834: $? = 0
configure:3834: result: yes
configure:3834: checking alloca.h presence
configure:3834: /usr/bin/cpp  -I/home/white/Documents/_Cateye/frida-cateyes/build/fs-linux-x86/include conftest.c
configure:3834: $? = 0
configure:3834: result: yes
configure:3834: checking for alloca.h
configure:3834: result: yes
configure:3834: checking elf.h usability
configure:3834: /usr/bin/gcc -static-libgcc -c -fPIC -m32 -ffunction-sections -fdata-sections -I/home/white/Documents/_Cateye/frida-cateyes/build/fs-linux-x86/include -Wall -Os -pipe -g3  -I/home/white/Documents/_Cateye/frida-cateyes/build/fs-linux-x86/include conftest.c >&5
configure:3834: $? = 0
configure:3834: result: yes
configure:3834: checking elf.h presence
configure:3834: /usr/bin/cpp  -I/home/white/Documents/_Cateye/frida-cateyes/build/fs-linux-x86/include conftest.c
configure:3834: $? = 0
configure:3834: result: yes
configure:3834: checking for elf.h
configure:3834: result: yes
configure:3834: checking for unistd.h
configure:3834: result: yes
configure:3834: checking elfaccess.h usability
configure:3834: /usr/bin/gcc -static-libgcc -c -fPIC -m32 -ffunction-sections -fdata-sections -I/home/white/Documents/_Cateye/frida-cateyes/build/fs-linux-x86/include -Wall -Os -pipe -g3  -I/home/white/Documents/_Cateye/frida-cateyes/build/fs-linux-x86/include conftest.c >&5
conftest.c:55:23: fatal error: elfaccess.h: No such file or directory
 #include <elfaccess.h>
                       ^
compilation terminated.
configure:3834: $? = 1
configure: failed program was:
| /* confdefs.h */
| #define PACKAGE_NAME ""
| #define PACKAGE_TARNAME ""
| #define PACKAGE_VERSION ""
| #define PACKAGE_STRING ""
| #define PACKAGE_BUGREPORT ""
| #define PACKAGE_URL ""
| #define STDC_HEADERS 1
| #define HAVE_SYS_TYPES_H 1
| #define HAVE_SYS_STAT_H 1
| #define HAVE_STDLIB_H 1
| #define HAVE_STRING_H 1
| #define HAVE_MEMORY_H 1
| #define HAVE_STRINGS_H 1
| #define HAVE_INTTYPES_H 1
| #define HAVE_STDINT_H 1
| #define HAVE_UNISTD_H 1
| #define HAVE_ALLOCA_H 1
| #define HAVE_ELF_H 1
| #define HAVE_UNISTD_H 1
| /* end confdefs.h.  */
| #include <stdio.h>
| #ifdef HAVE_SYS_TYPES_H
| # include <sys/types.h>
| #endif
| #ifdef HAVE_SYS_STAT_H
| # include <sys/stat.h>
| #endif
| #ifdef STDC_HEADERS
| # include <stdlib.h>
| # include <stddef.h>
| #else
| # ifdef HAVE_STDLIB_H
| #  include <stdlib.h>
| # endif
| #endif
| #ifdef HAVE_STRING_H
| # if !defined STDC_HEADERS && defined HAVE_MEMORY_H
| #  include <memory.h>
| # endif
| # include <string.h>
| #endif
| #ifdef HAVE_STRINGS_H
| # include <strings.h>
| #endif
| #ifdef HAVE_INTTYPES_H
| # include <inttypes.h>
| #endif
| #ifdef HAVE_STDINT_H
| # include <stdint.h>
| #endif
| #ifdef HAVE_UNISTD_H
| # include <unistd.h>
| #endif
| #include <elfaccess.h>
configure:3834: result: no
configure:3834: checking elfaccess.h presence
configure:3834: /usr/bin/cpp  -I/home/white/Documents/_Cateye/frida-cateyes/build/fs-linux-x86/include conftest.c
conftest.c:22:23: fatal error: elfaccess.h: No such file or directory
compilation terminated.
configure:3834: $? = 1
configure: failed program was:
| /* confdefs.h */
| #define PACKAGE_NAME ""
| #define PACKAGE_TARNAME ""
| #define PACKAGE_VERSION ""
| #define PACKAGE_STRING ""
| #define PACKAGE_BUGREPORT ""
| #define PACKAGE_URL ""
| #define STDC_HEADERS 1
| #define HAVE_SYS_TYPES_H 1
| #define HAVE_SYS_STAT_H 1
| #define HAVE_STDLIB_H 1
| #define HAVE_STRING_H 1
| #define HAVE_MEMORY_H 1
| #define HAVE_STRINGS_H 1
| #define HAVE_INTTYPES_H 1
| #define HAVE_STDINT_H 1
| #define HAVE_UNISTD_H 1
| #define HAVE_ALLOCA_H 1
| #define HAVE_ELF_H 1
| #define HAVE_UNISTD_H 1
| /* end confdefs.h.  */
| #include <elfaccess.h>
configure:3834: result: no
configure:3834: checking for elfaccess.h
configure:3834: result: no
configure:3834: checking libelf.h usability
configure:3834: /usr/bin/gcc -static-libgcc -c -fPIC -m32 -ffunction-sections -fdata-sections -I/home/white/Documents/_Cateye/frida-cateyes/build/fs-linux-x86/include -Wall -Os -pipe -g3  -I/home/white/Documents/_Cateye/frida-cateyes/build/fs-linux-x86/include conftest.c >&5
configure:3834: $? = 0
configure:3834: result: yes
configure:3834: checking libelf.h presence
configure:3834: /usr/bin/cpp  -I/home/white/Documents/_Cateye/frida-cateyes/build/fs-linux-x86/include conftest.c
configure:3834: $? = 0
configure:3834: result: yes
configure:3834: checking for libelf.h
configure:3834: result: yes
configure:3834: checking libelf/libelf.h usability
configure:3834: /usr/bin/gcc -static-libgcc -c -fPIC -m32 -ffunction-sections -fdata-sections -I/home/white/Documents/_Cateye/frida-cateyes/build/fs-linux-x86/include -Wall -Os -pipe -g3  -I/home/white/Documents/_Cateye/frida-cateyes/build/fs-linux-x86/include conftest.c >&5
conftest.c:56:27: fatal error: libelf/libelf.h: No such file or directory
 #include <libelf/libelf.h>
                           ^
compilation terminated.
configure:3834: $? = 1
configure: failed program was:
| /* confdefs.h */
| #define PACKAGE_NAME ""
| #define PACKAGE_TARNAME ""
| #define PACKAGE_VERSION ""
| #define PACKAGE_STRING ""
| #define PACKAGE_BUGREPORT ""
| #define PACKAGE_URL ""
| #define STDC_HEADERS 1
| #define HAVE_SYS_TYPES_H 1
| #define HAVE_SYS_STAT_H 1
| #define HAVE_STDLIB_H 1
| #define HAVE_STRING_H 1
| #define HAVE_MEMORY_H 1
| #define HAVE_STRINGS_H 1
| #define HAVE_INTTYPES_H 1
| #define HAVE_STDINT_H 1
| #define HAVE_UNISTD_H 1
| #define HAVE_ALLOCA_H 1
| #define HAVE_ELF_H 1
| #define HAVE_UNISTD_H 1
| #define HAVE_LIBELF_H 1
| /* end confdefs.h.  */
| #include <stdio.h>
| #ifdef HAVE_SYS_TYPES_H
| # include <sys/types.h>
| #endif
| #ifdef HAVE_SYS_STAT_H
| # include <sys/stat.h>
| #endif
| #ifdef STDC_HEADERS
| # include <stdlib.h>
| # include <stddef.h>
| #else
| # ifdef HAVE_STDLIB_H
| #  include <stdlib.h>
| # endif
| #endif
| #ifdef HAVE_STRING_H
| # if !defined STDC_HEADERS && defined HAVE_MEMORY_H
| #  include <memory.h>
| # endif
| # include <string.h>
| #endif
| #ifdef HAVE_STRINGS_H
| # include <strings.h>
| #endif
| #ifdef HAVE_INTTYPES_H
| # include <inttypes.h>
| #endif
| #ifdef HAVE_STDINT_H
| # include <stdint.h>
| #endif
| #ifdef HAVE_UNISTD_H
| # include <unistd.h>
| #endif
| #include <libelf/libelf.h>
configure:3834: result: no
configure:3834: checking libelf/libelf.h presence
configure:3834: /usr/bin/cpp  -I/home/white/Documents/_Cateye/frida-cateyes/build/fs-linux-x86/include conftest.c
conftest.c:23:27: fatal error: libelf/libelf.h: No such file or directory
compilation terminated.
configure:3834: $? = 1
configure: failed program was:
| /* confdefs.h */
| #define PACKAGE_NAME ""
| #define PACKAGE_TARNAME ""
| #define PACKAGE_VERSION ""
| #define PACKAGE_STRING ""
| #define PACKAGE_BUGREPORT ""
| #define PACKAGE_URL ""
| #define STDC_HEADERS 1
| #define HAVE_SYS_TYPES_H 1
| #define HAVE_SYS_STAT_H 1
| #define HAVE_STDLIB_H 1
| #define HAVE_STRING_H 1
| #define HAVE_MEMORY_H 1
| #define HAVE_STRINGS_H 1
| #define HAVE_INTTYPES_H 1
| #define HAVE_STDINT_H 1
| #define HAVE_UNISTD_H 1
| #define HAVE_ALLOCA_H 1
| #define HAVE_ELF_H 1
| #define HAVE_UNISTD_H 1
| #define HAVE_LIBELF_H 1
| /* end confdefs.h.  */
| #include <libelf/libelf.h>
configure:3834: result: no
configure:3834: checking for libelf/libelf.h
configure:3834: result: no
configure:3834: checking for sys/types.h
configure:3834: result: yes
configure:3834: checking sys/elf_386.h usability
configure:3834: /usr/bin/gcc -static-libgcc -c -fPIC -m32 -ffunction-sections -fdata-sections -I/home/white/Documents/_Cateye/frida-cateyes/build/fs-linux-x86/include -Wall -Os -pipe -g3  -I/home/white/Documents/_Cateye/frida-cateyes/build/fs-linux-x86/include conftest.c >&5
conftest.c:57:25: fatal error: sys/elf_386.h: No such file or directory
 #include <sys/elf_386.h>
                         ^
compilation terminated.
configure:3834: $? = 1
configure: failed program was:
| /* confdefs.h */
| #define PACKAGE_NAME ""
| #define PACKAGE_TARNAME ""
| #define PACKAGE_VERSION ""
| #define PACKAGE_STRING ""
| #define PACKAGE_BUGREPORT ""
| #define PACKAGE_URL ""
| #define STDC_HEADERS 1
| #define HAVE_SYS_TYPES_H 1
| #define HAVE_SYS_STAT_H 1
| #define HAVE_STDLIB_H 1
| #define HAVE_STRING_H 1
| #define HAVE_MEMORY_H 1
| #define HAVE_STRINGS_H 1
| #define HAVE_INTTYPES_H 1
| #define HAVE_STDINT_H 1
| #define HAVE_UNISTD_H 1
| #define HAVE_ALLOCA_H 1
| #define HAVE_ELF_H 1
| #define HAVE_UNISTD_H 1
| #define HAVE_LIBELF_H 1
| #define HAVE_SYS_TYPES_H 1
| /* end confdefs.h.  */
| #include <stdio.h>
| #ifdef HAVE_SYS_TYPES_H
| # include <sys/types.h>
| #endif
| #ifdef HAVE_SYS_STAT_H
| # include <sys/stat.h>
| #endif
| #ifdef STDC_HEADERS
| # include <stdlib.h>
| # include <stddef.h>
| #else
| # ifdef HAVE_STDLIB_H
| #  include <stdlib.h>
| # endif
| #endif
| #ifdef HAVE_STRING_H
| # if !defined STDC_HEADERS && defined HAVE_MEMORY_H
| #  include <memory.h>
| # endif
| # include <string.h>
| #endif
| #ifdef HAVE_STRINGS_H
| # include <strings.h>
| #endif
| #ifdef HAVE_INTTYPES_H
| # include <inttypes.h>
| #endif
| #ifdef HAVE_STDINT_H
| # include <stdint.h>
| #endif
| #ifdef HAVE_UNISTD_H
| # include <unistd.h>
| #endif
| #include <sys/elf_386.h>
configure:3834: result: no
configure:3834: checking sys/elf_386.h presence
configure:3834: /usr/bin/cpp  -I/home/white/Documents/_Cateye/frida-cateyes/build/fs-linux-x86/include conftest.c
conftest.c:24:25: fatal error: sys/elf_386.h: No such file or directory
compilation terminated.
configure:3834: $? = 1
configure: failed program was:
| /* confdefs.h */
| #define PACKAGE_NAME ""
| #define PACKAGE_TARNAME ""
| #define PACKAGE_VERSION ""
| #define PACKAGE_STRING ""
| #define PACKAGE_BUGREPORT ""
| #define PACKAGE_URL ""
| #define STDC_HEADERS 1
| #define HAVE_SYS_TYPES_H 1
| #define HAVE_SYS_STAT_H 1
| #define HAVE_STDLIB_H 1
| #define HAVE_STRING_H 1
| #define HAVE_MEMORY_H 1
| #define HAVE_STRINGS_H 1
| #define HAVE_INTTYPES_H 1
| #define HAVE_STDINT_H 1
| #define HAVE_UNISTD_H 1
| #define HAVE_ALLOCA_H 1
| #define HAVE_ELF_H 1
| #define HAVE_UNISTD_H 1
| #define HAVE_LIBELF_H 1
| #define HAVE_SYS_TYPES_H 1
| /* end confdefs.h.  */
| #include <sys/elf_386.h>
configure:3834: result: no
configure:3834: checking for sys/elf_386.h
configure:3834: result: no
configure:3834: checking sys/elf_amd64.h usability
configure:3834: /usr/bin/gcc -static-libgcc -c -fPIC -m32 -ffunction-sections -fdata-sections -I/home/white/Documents/_Cateye/frida-cateyes/build/fs-linux-x86/include -Wall -Os -pipe -g3  -I/home/white/Documents/_Cateye/frida-cateyes/build/fs-linux-x86/include conftest.c >&5
conftest.c:57:27: fatal error: sys/elf_amd64.h: No such file or directory
 #include <sys/elf_amd64.h>
                           ^
compilation terminated.
configure:3834: $? = 1
configure: failed program was:
| /* confdefs.h */
| #define PACKAGE_NAME ""
| #define PACKAGE_TARNAME ""
| #define PACKAGE_VERSION ""
| #define PACKAGE_STRING ""
| #define PACKAGE_BUGREPORT ""
| #define PACKAGE_URL ""
| #define STDC_HEADERS 1
| #define HAVE_SYS_TYPES_H 1
| #define HAVE_SYS_STAT_H 1
| #define HAVE_STDLIB_H 1
| #define HAVE_STRING_H 1
| #define HAVE_MEMORY_H 1
| #define HAVE_STRINGS_H 1
| #define HAVE_INTTYPES_H 1
| #define HAVE_STDINT_H 1
| #define HAVE_UNISTD_H 1
| #define HAVE_ALLOCA_H 1
| #define HAVE_ELF_H 1
| #define HAVE_UNISTD_H 1
| #define HAVE_LIBELF_H 1
| #define HAVE_SYS_TYPES_H 1
| /* end confdefs.h.  */
| #include <stdio.h>
| #ifdef HAVE_SYS_TYPES_H
| # include <sys/types.h>
| #endif
| #ifdef HAVE_SYS_STAT_H
| # include <sys/stat.h>
| #endif
| #ifdef STDC_HEADERS
| # include <stdlib.h>
| # include <stddef.h>
| #else
| # ifdef HAVE_STDLIB_H
| #  include <stdlib.h>
| # endif
| #endif
| #ifdef HAVE_STRING_H
| # if !defined STDC_HEADERS && defined HAVE_MEMORY_H
| #  include <memory.h>
| # endif
| # include <string.h>
| #endif
| #ifdef HAVE_STRINGS_H
| # include <strings.h>
| #endif
| #ifdef HAVE_INTTYPES_H
| # include <inttypes.h>
| #endif
| #ifdef HAVE_STDINT_H
| # include <stdint.h>
| #endif
| #ifdef HAVE_UNISTD_H
| # include <unistd.h>
| #endif
| #include <sys/elf_amd64.h>
configure:3834: result: no
configure:3834: checking sys/elf_amd64.h presence
configure:3834: /usr/bin/cpp  -I/home/white/Documents/_Cateye/frida-cateyes/build/fs-linux-x86/include conftest.c
conftest.c:24:27: fatal error: sys/elf_amd64.h: No such file or directory
compilation terminated.
configure:3834: $? = 1
configure: failed program was:
| /* confdefs.h */
| #define PACKAGE_NAME ""
| #define PACKAGE_TARNAME ""
| #define PACKAGE_VERSION ""
| #define PACKAGE_STRING ""
| #define PACKAGE_BUGREPORT ""
| #define PACKAGE_URL ""
| #define STDC_HEADERS 1
| #define HAVE_SYS_TYPES_H 1
| #define HAVE_SYS_STAT_H 1
| #define HAVE_STDLIB_H 1
| #define HAVE_STRING_H 1
| #define HAVE_MEMORY_H 1
| #define HAVE_STRINGS_H 1
| #define HAVE_INTTYPES_H 1
| #define HAVE_STDINT_H 1
| #define HAVE_UNISTD_H 1
| #define HAVE_ALLOCA_H 1
| #define HAVE_ELF_H 1
| #define HAVE_UNISTD_H 1
| #define HAVE_LIBELF_H 1
| #define HAVE_SYS_TYPES_H 1
| /* end confdefs.h.  */
| #include <sys/elf_amd64.h>
configure:3834: result: no
configure:3834: checking for sys/elf_amd64.h
configure:3834: result: no
configure:3834: checking sys/elf_SPARC.h usability
configure:3834: /usr/bin/gcc -static-libgcc -c -fPIC -m32 -ffunction-sections -fdata-sections -I/home/white/Documents/_Cateye/frida-cateyes/build/fs-linux-x86/include -Wall -Os -pipe -g3  -I/home/white/Documents/_Cateye/frida-cateyes/build/fs-linux-x86/include conftest.c >&5
conftest.c:57:27: fatal error: sys/elf_SPARC.h: No such file or directory
 #include <sys/elf_SPARC.h>
                           ^
compilation terminated.
configure:3834: $? = 1
configure: failed program was:
| /* confdefs.h */
| #define PACKAGE_NAME ""
| #define PACKAGE_TARNAME ""
| #define PACKAGE_VERSION ""
| #define PACKAGE_STRING ""
| #define PACKAGE_BUGREPORT ""
| #define PACKAGE_URL ""
| #define STDC_HEADERS 1
| #define HAVE_SYS_TYPES_H 1
| #define HAVE_SYS_STAT_H 1
| #define HAVE_STDLIB_H 1
| #define HAVE_STRING_H 1
| #define HAVE_MEMORY_H 1
| #define HAVE_STRINGS_H 1
| #define HAVE_INTTYPES_H 1
| #define HAVE_STDINT_H 1
| #define HAVE_UNISTD_H 1
| #define HAVE_ALLOCA_H 1
| #define HAVE_ELF_H 1
| #define HAVE_UNISTD_H 1
| #define HAVE_LIBELF_H 1
| #define HAVE_SYS_TYPES_H 1
| /* end confdefs.h.  */
| #include <stdio.h>
| #ifdef HAVE_SYS_TYPES_H
| # include <sys/types.h>
| #endif
| #ifdef HAVE_SYS_STAT_H
| # include <sys/stat.h>
| #endif
| #ifdef STDC_HEADERS
| # include <stdlib.h>
| # include <stddef.h>
| #else
| # ifdef HAVE_STDLIB_H
| #  include <stdlib.h>
| # endif
| #endif
| #ifdef HAVE_STRING_H
| # if !defined STDC_HEADERS && defined HAVE_MEMORY_H
| #  include <memory.h>
| # endif
| # include <string.h>
| #endif
| #ifdef HAVE_STRINGS_H
| # include <strings.h>
| #endif
| #ifdef HAVE_INTTYPES_H
| # include <inttypes.h>
| #endif
| #ifdef HAVE_STDINT_H
| # include <stdint.h>
| #endif
| #ifdef HAVE_UNISTD_H
| # include <unistd.h>
| #endif
| #include <sys/elf_SPARC.h>
configure:3834: result: no
configure:3834: checking sys/elf_SPARC.h presence
configure:3834: /usr/bin/cpp  -I/home/white/Documents/_Cateye/frida-cateyes/build/fs-linux-x86/include conftest.c
conftest.c:24:27: fatal error: sys/elf_SPARC.h: No such file or directory
compilation terminated.
configure:3834: $? = 1
configure: failed program was:
| /* confdefs.h */
| #define PACKAGE_NAME ""
| #define PACKAGE_TARNAME ""
| #define PACKAGE_VERSION ""
| #define PACKAGE_STRING ""
| #define PACKAGE_BUGREPORT ""
| #define PACKAGE_URL ""
| #define STDC_HEADERS 1
| #define HAVE_SYS_TYPES_H 1
| #define HAVE_SYS_STAT_H 1
| #define HAVE_STDLIB_H 1
| #define HAVE_STRING_H 1
| #define HAVE_MEMORY_H 1
| #define HAVE_STRINGS_H 1
| #define HAVE_INTTYPES_H 1
| #define HAVE_STDINT_H 1
| #define HAVE_UNISTD_H 1
| #define HAVE_ALLOCA_H 1
| #define HAVE_ELF_H 1
| #define HAVE_UNISTD_H 1
| #define HAVE_LIBELF_H 1
| #define HAVE_SYS_TYPES_H 1
| /* end confdefs.h.  */
| #include <sys/elf_SPARC.h>
configure:3834: result: no
configure:3834: checking for sys/elf_SPARC.h
configure:3834: result: no
configure:3834: checking sys/ia64/elf.h usability
configure:3834: /usr/bin/gcc -static-libgcc -c -fPIC -m32 -ffunction-sections -fdata-sections -I/home/white/Documents/_Cateye/frida-cateyes/build/fs-linux-x86/include -Wall -Os -pipe -g3  -I/home/white/Documents/_Cateye/frida-cateyes/build/fs-linux-x86/include conftest.c >&5
conftest.c:57:26: fatal error: sys/ia64/elf.h: No such file or directory
 #include <sys/ia64/elf.h>
                          ^
compilation terminated.
configure:3834: $? = 1
configure: failed program was:
| /* confdefs.h */
| #define PACKAGE_NAME ""
| #define PACKAGE_TARNAME ""
| #define PACKAGE_VERSION ""
| #define PACKAGE_STRING ""
| #define PACKAGE_BUGREPORT ""
| #define PACKAGE_URL ""
| #define STDC_HEADERS 1
| #define HAVE_SYS_TYPES_H 1
| #define HAVE_SYS_STAT_H 1
| #define HAVE_STDLIB_H 1
| #define HAVE_STRING_H 1
| #define HAVE_MEMORY_H 1
| #define HAVE_STRINGS_H 1
| #define HAVE_INTTYPES_H 1
| #define HAVE_STDINT_H 1
| #define HAVE_UNISTD_H 1
| #define HAVE_ALLOCA_H 1
| #define HAVE_ELF_H 1
| #define HAVE_UNISTD_H 1
| #define HAVE_LIBELF_H 1
| #define HAVE_SYS_TYPES_H 1
| /* end confdefs.h.  */
| #include <stdio.h>
| #ifdef HAVE_SYS_TYPES_H
| # include <sys/types.h>
| #endif
| #ifdef HAVE_SYS_STAT_H
| # include <sys/stat.h>
| #endif
| #ifdef STDC_HEADERS
| # include <stdlib.h>
| # include <stddef.h>
| #else
| # ifdef HAVE_STDLIB_H
| #  include <stdlib.h>
| # endif
| #endif
| #ifdef HAVE_STRING_H
| # if !defined STDC_HEADERS && defined HAVE_MEMORY_H
| #  include <memory.h>
| # endif
| # include <string.h>
| #endif
| #ifdef HAVE_STRINGS_H
| # include <strings.h>
| #endif
| #ifdef HAVE_INTTYPES_H
| # include <inttypes.h>
| #endif
| #ifdef HAVE_STDINT_H
| # include <stdint.h>
| #endif
| #ifdef HAVE_UNISTD_H
| # include <unistd.h>
| #endif
| #include <sys/ia64/elf.h>
configure:3834: result: no
configure:3834: checking sys/ia64/elf.h presence
configure:3834: /usr/bin/cpp  -I/home/white/Documents/_Cateye/frida-cateyes/build/fs-linux-x86/include conftest.c
conftest.c:24:26: fatal error: sys/ia64/elf.h: No such file or directory
compilation terminated.
configure:3834: $? = 1
configure: failed program was:
| /* confdefs.h */
| #define PACKAGE_NAME ""
| #define PACKAGE_TARNAME ""
| #define PACKAGE_VERSION ""
| #define PACKAGE_STRING ""
| #define PACKAGE_BUGREPORT ""
| #define PACKAGE_URL ""
| #define STDC_HEADERS 1
| #define HAVE_SYS_TYPES_H 1
| #define HAVE_SYS_STAT_H 1
| #define HAVE_STDLIB_H 1
| #define HAVE_STRING_H 1
| #define HAVE_MEMORY_H 1
| #define HAVE_STRINGS_H 1
| #define HAVE_INTTYPES_H 1
| #define HAVE_STDINT_H 1
| #define HAVE_UNISTD_H 1
| #define HAVE_ALLOCA_H 1
| #define HAVE_ELF_H 1
| #define HAVE_UNISTD_H 1
| #define HAVE_LIBELF_H 1
| #define HAVE_SYS_TYPES_H 1
| /* end confdefs.h.  */
| #include <sys/ia64/elf.h>
configure:3834: result: no
configure:3834: checking for sys/ia64/elf.h
configure:3834: result: no
configure:3848: checking for elf64_getehdr in -lelf
configure:3873: /usr/bin/gcc -static-libgcc -o conftest -fPIC -m32 -ffunction-sections -fdata-sections -I/home/white/Documents/_Cateye/frida-cateyes/build/fs-linux-x86/include -Wall -Os -pipe -g3  -I/home/white/Documents/_Cateye/frida-cateyes/build/fs-linux-x86/include -m32 -Wl,--gc-sections -Wl,-z,noexecstack -L/home/white/Documents/_Cateye/frida-cateyes/build/fs-linux-x86/lib conftest.c -lelf   >&5
configure:3873: $? = 0
configure:3882: result: yes
configure:3888: result: yes
configure:3896: checking for elf64_getshdr in -lelf
configure:3921: /usr/bin/gcc -static-libgcc -o conftest -fPIC -m32 -ffunction-sections -fdata-sections -I/home/white/Documents/_Cateye/frida-cateyes/build/fs-linux-x86/include -Wall -Os -pipe -g3  -I/home/white/Documents/_Cateye/frida-cateyes/build/fs-linux-x86/include -m32 -Wl,--gc-sections -Wl,-z,noexecstack -L/home/white/Documents/_Cateye/frida-cateyes/build/fs-linux-x86/lib conftest.c -lelf   >&5
configure:3921: $? = 0
configure:3930: result: yes
configure:3936: result: yes
configure:3944: checking is __uint32_t predefined in the compiler
configure:3957: /usr/bin/gcc -static-libgcc -c -fPIC -m32 -ffunction-sections -fdata-sections -I/home/white/Documents/_Cateye/frida-cateyes/build/fs-linux-x86/include -Wall -Os -pipe -g3  -I/home/white/Documents/_Cateye/frida-cateyes/build/fs-linux-x86/include conftest.c >&5
conftest.c: In function 'main':
conftest.c:30:1: error: unknown type name '__uint32_t'
 __uint32_t p; p = 2;
 ^~~~~~~~~~
conftest.c:30:12: warning: variable 'p' set but not used [-Wunused-but-set-variable]
 __uint32_t p; p = 2;
            ^
configure:3957: $? = 1
configure: failed program was:
| /* confdefs.h */
| #define PACKAGE_NAME ""
| #define PACKAGE_TARNAME ""
| #define PACKAGE_VERSION ""
| #define PACKAGE_STRING ""
| #define PACKAGE_BUGREPORT ""
| #define PACKAGE_URL ""
| #define STDC_HEADERS 1
| #define HAVE_SYS_TYPES_H 1
| #define HAVE_SYS_STAT_H 1
| #define HAVE_STDLIB_H 1
| #define HAVE_STRING_H 1
| #define HAVE_MEMORY_H 1
| #define HAVE_STRINGS_H 1
| #define HAVE_INTTYPES_H 1
| #define HAVE_STDINT_H 1
| #define HAVE_UNISTD_H 1
| #define HAVE_ALLOCA_H 1
| #define HAVE_ELF_H 1
| #define HAVE_UNISTD_H 1
| #define HAVE_LIBELF_H 1
| #define HAVE_SYS_TYPES_H 1
| #define HAVE_ELF64_GETEHDR 1
| #define HAVE_ELF64_GETSHDR 1
| /* end confdefs.h.  */
| 
| int
| main ()
| {
| __uint32_t p; p = 2;
|   ;
|   return 0;
| }
configure:3964: result: no
configure:3969: checking is __uint64_t predefined in the compiler
configure:3982: /usr/bin/gcc -static-libgcc -c -fPIC -m32 -ffunction-sections -fdata-sections -I/home/white/Documents/_Cateye/frida-cateyes/build/fs-linux-x86/include -Wall -Os -pipe -g3  -I/home/white/Documents/_Cateye/frida-cateyes/build/fs-linux-x86/include conftest.c >&5
conftest.c: In function 'main':
conftest.c:30:1: error: unknown type name '__uint64_t'
 __uint64_t p; p = 3;
 ^~~~~~~~~~
conftest.c:30:12: warning: variable 'p' set but not used [-Wunused-but-set-variable]
 __uint64_t p; p = 3;
            ^
configure:3982: $? = 1
configure: failed program was:
| /* confdefs.h */
| #define PACKAGE_NAME ""
| #define PACKAGE_TARNAME ""
| #define PACKAGE_VERSION ""
| #define PACKAGE_STRING ""
| #define PACKAGE_BUGREPORT ""
| #define PACKAGE_URL ""
| #define STDC_HEADERS 1
| #define HAVE_SYS_TYPES_H 1
| #define HAVE_SYS_STAT_H 1
| #define HAVE_STDLIB_H 1
| #define HAVE_STRING_H 1
| #define HAVE_MEMORY_H 1
| #define HAVE_STRINGS_H 1
| #define HAVE_INTTYPES_H 1
| #define HAVE_STDINT_H 1
| #define HAVE_UNISTD_H 1
| #define HAVE_ALLOCA_H 1
| #define HAVE_ELF_H 1
| #define HAVE_UNISTD_H 1
| #define HAVE_LIBELF_H 1
| #define HAVE_SYS_TYPES_H 1
| #define HAVE_ELF64_GETEHDR 1
| #define HAVE_ELF64_GETSHDR 1
| /* end confdefs.h.  */
| 
| int
| main ()
| {
| __uint64_t p; p = 3;
|   ;
|   return 0;
| }
configure:3989: result: no
configure:3994: checking is __uint32_t defined in sys/types.h
configure:4007: /usr/bin/gcc -static-libgcc -c -fPIC -m32 -ffunction-sections -fdata-sections -I/home/white/Documents/_Cateye/frida-cateyes/build/fs-linux-x86/include -Wall -Os -pipe -g3  -I/home/white/Documents/_Cateye/frida-cateyes/build/fs-linux-x86/include conftest.c >&5
conftest.c: In function 'main':
conftest.c:30:14: warning: variable 'p' set but not used [-Wunused-but-set-variable]
   __uint32_t p; p = 4;
              ^
configure:4007: $? = 0
configure:4011: result: yes
configure:4019: checking is __uint64_t defined in sys/types.h
configure:4032: /usr/bin/gcc -static-libgcc -c -fPIC -m32 -ffunction-sections -fdata-sections -I/home/white/Documents/_Cateye/frida-cateyes/build/fs-linux-x86/include -Wall -Os -pipe -g3  -I/home/white/Documents/_Cateye/frida-cateyes/build/fs-linux-x86/include conftest.c >&5
conftest.c: In function 'main':
conftest.c:31:14: warning: variable 'p' set but not used [-Wunused-but-set-variable]
   __uint64_t p; p = 5;
              ^
configure:4032: $? = 0
configure:4036: result: yes
configure:4044: checking compiler supports __attribute__ unused 
configure:4079: checking zlib.h usability
configure:4101: /usr/bin/gcc -static-libgcc -c -fPIC -m32 -ffunction-sections -fdata-sections -I/home/white/Documents/_Cateye/frida-cateyes/build/fs-linux-x86/include -Wall -Os -pipe -g3  -I/home/white/Documents/_Cateye/frida-cateyes/build/fs-linux-x86/include conftest.c >&5
configure:4101: $? = 0
configure:4102: result: yes
configure:4128: /usr/bin/gcc -static-libgcc -c -fPIC -m32 -ffunction-sections -fdata-sections -I/home/white/Documents/_Cateye/frida-cateyes/build/fs-linux-x86/include -Wall -Os -pipe -g3  -I/home/white/Documents/_Cateye/frida-cateyes/build/fs-linux-x86/include conftest.c >&5
conftest.c:29:27: fatal error: libelf/libelf.h: No such file or directory
 #include <libelf/libelf.h>
                           ^
compilation terminated.
configure:4128: $? = 1
configure: failed program was:
| /* confdefs.h */
| #define PACKAGE_NAME ""
| #define PACKAGE_TARNAME ""
| #define PACKAGE_VERSION ""
| #define PACKAGE_STRING ""
| #define PACKAGE_BUGREPORT ""
| #define PACKAGE_URL ""
| #define STDC_HEADERS 1
| #define HAVE_SYS_TYPES_H 1
| #define HAVE_SYS_STAT_H 1
| #define HAVE_STDLIB_H 1
| #define HAVE_STRING_H 1
| #define HAVE_MEMORY_H 1
| #define HAVE_STRINGS_H 1
| #define HAVE_INTTYPES_H 1
| #define HAVE_STDINT_H 1
| #define HAVE_UNISTD_H 1
| #define HAVE_ALLOCA_H 1
| #define HAVE_ELF_H 1
| #define HAVE_UNISTD_H 1
| #define HAVE_LIBELF_H 1
| #define HAVE_SYS_TYPES_H 1
| #define HAVE_ELF64_GETEHDR 1
| #define HAVE_ELF64_GETSHDR 1
| #define HAVE___UINT32_T_IN_SYS_TYPES_H 1
| #define HAVE___UINT64_T_IN_SYS_TYPES_H 1
| #define HAVE_ZLIB 1
| /* end confdefs.h.  */
| #include <libelf/libelf.h>
|   struct _Elf; typedef struct _Elf Elf;
| int
| main ()
| {
| struct _Elf *a = 0;
|   ;
|   return 0;
| }
configure:4148: /usr/bin/gcc -static-libgcc -c -fPIC -m32 -ffunction-sections -fdata-sections -I/home/white/Documents/_Cateye/frida-cateyes/build/fs-linux-x86/include -Wall -Os -pipe -g3  -I/home/white/Documents/_Cateye/frida-cateyes/build/fs-linux-x86/include conftest.c >&5
conftest.c:30:36: error: conflicting types for 'Elf'
   struct _Elf; typedef struct _Elf Elf;
                                    ^~~
In file included from conftest.c:29:0:
/home/white/Documents/_Cateye/frida-cateyes/build/fs-linux-x86/include/libelf.h:214:20: note: previous declaration of 'Elf' was here
 typedef struct Elf Elf;
                    ^~~
conftest.c: In function 'main':
conftest.c:34:15: warning: unused variable 'a' [-Wunused-variable]
  struct _Elf *a = 0;
               ^
configure:4148: $? = 1
configure: failed program was:
| /* confdefs.h */
| #define PACKAGE_NAME ""
| #define PACKAGE_TARNAME ""
| #define PACKAGE_VERSION ""
| #define PACKAGE_STRING ""
| #define PACKAGE_BUGREPORT ""
| #define PACKAGE_URL ""
| #define STDC_HEADERS 1
| #define HAVE_SYS_TYPES_H 1
| #define HAVE_SYS_STAT_H 1
| #define HAVE_STDLIB_H 1
| #define HAVE_STRING_H 1
| #define HAVE_MEMORY_H 1
| #define HAVE_STRINGS_H 1
| #define HAVE_INTTYPES_H 1
| #define HAVE_STDINT_H 1
| #define HAVE_UNISTD_H 1
| #define HAVE_ALLOCA_H 1
| #define HAVE_ELF_H 1
| #define HAVE_UNISTD_H 1
| #define HAVE_LIBELF_H 1
| #define HAVE_SYS_TYPES_H 1
| #define HAVE_ELF64_GETEHDR 1
| #define HAVE_ELF64_GETSHDR 1
| #define HAVE___UINT32_T_IN_SYS_TYPES_H 1
| #define HAVE___UINT64_T_IN_SYS_TYPES_H 1
| #define HAVE_ZLIB 1
| /* end confdefs.h.  */
| #include <libelf.h>
|   struct _Elf; typedef struct _Elf Elf;
| int
| main ()
| {
|  struct _Elf *a = 0;
|   ;
|   return 0;
| }
configure:4157: checking Intel Itanium relocation types defined
configure:4170: /usr/bin/gcc -static-libgcc -c -fPIC -m32 -ffunction-sections -fdata-sections -I/home/white/Documents/_Cateye/frida-cateyes/build/fs-linux-x86/include -Wall -Os -pipe -g3  -I/home/white/Documents/_Cateye/frida-cateyes/build/fs-linux-x86/include conftest.c >&5
conftest.c: In function 'main':
conftest.c:33:14: error: 'R_IA_64_DIR32LSB' undeclared (first use in this function)
   int p; p = R_IA_64_DIR32LSB;
              ^~~~~~~~~~~~~~~~
conftest.c:33:14: note: each undeclared identifier is reported only once for each function it appears in
conftest.c:33:7: warning: variable 'p' set but not used [-Wunused-but-set-variable]
   int p; p = R_IA_64_DIR32LSB;
       ^
configure:4170: $? = 1
configure: failed program was:
| /* confdefs.h */
| #define PACKAGE_NAME ""
| #define PACKAGE_TARNAME ""
| #define PACKAGE_VERSION ""
| #define PACKAGE_STRING ""
| #define PACKAGE_BUGREPORT ""
| #define PACKAGE_URL ""
| #define STDC_HEADERS 1
| #define HAVE_SYS_TYPES_H 1
| #define HAVE_SYS_STAT_H 1
| #define HAVE_STDLIB_H 1
| #define HAVE_STRING_H 1
| #define HAVE_MEMORY_H 1
| #define HAVE_STRINGS_H 1
| #define HAVE_INTTYPES_H 1
| #define HAVE_STDINT_H 1
| #define HAVE_UNISTD_H 1
| #define HAVE_ALLOCA_H 1
| #define HAVE_ELF_H 1
| #define HAVE_UNISTD_H 1
| #define HAVE_LIBELF_H 1
| #define HAVE_SYS_TYPES_H 1
| #define HAVE_ELF64_GETEHDR 1
| #define HAVE_ELF64_GETSHDR 1
| #define HAVE___UINT32_T_IN_SYS_TYPES_H 1
| #define HAVE___UINT64_T_IN_SYS_TYPES_H 1
| #define HAVE_ZLIB 1
| /* end confdefs.h.  */
| #include <elf.h>
| int
| main ()
| {
|   int p; p = R_IA_64_DIR32LSB;
|   ;
|   return 0;
| }
configure:4177: result: no
configure:4182: checking libelf defines struct _Elf
configure:4195: /usr/bin/gcc -static-libgcc -c -fPIC -m32 -ffunction-sections -fdata-sections -I/home/white/Documents/_Cateye/frida-cateyes/build/fs-linux-x86/include -Wall -Os -pipe -g3  -I/home/white/Documents/_Cateye/frida-cateyes/build/fs-linux-x86/include conftest.c >&5
conftest.c: In function 'main':
conftest.c:33:14: error: storage size of 'a' isn't known
  struct _Elf a; int i; i = 0;
              ^
conftest.c:33:21: warning: variable 'i' set but not used [-Wunused-but-set-variable]
  struct _Elf a; int i; i = 0;
                     ^
conftest.c:33:14: warning: unused variable 'a' [-Wunused-variable]
  struct _Elf a; int i; i = 0;
              ^
configure:4195: $? = 1
configure: failed program was:
| /* confdefs.h */
| #define PACKAGE_NAME ""
| #define PACKAGE_TARNAME ""
| #define PACKAGE_VERSION ""
| #define PACKAGE_STRING ""
| #define PACKAGE_BUGREPORT ""
| #define PACKAGE_URL ""
| #define STDC_HEADERS 1
| #define HAVE_SYS_TYPES_H 1
| #define HAVE_SYS_STAT_H 1
| #define HAVE_STDLIB_H 1
| #define HAVE_STRING_H 1
| #define HAVE_MEMORY_H 1
| #define HAVE_STRINGS_H 1
| #define HAVE_INTTYPES_H 1
| #define HAVE_STDINT_H 1
| #define HAVE_UNISTD_H 1
| #define HAVE_ALLOCA_H 1
| #define HAVE_ELF_H 1
| #define HAVE_UNISTD_H 1
| #define HAVE_LIBELF_H 1
| #define HAVE_SYS_TYPES_H 1
| #define HAVE_ELF64_GETEHDR 1
| #define HAVE_ELF64_GETSHDR 1
| #define HAVE___UINT32_T_IN_SYS_TYPES_H 1
| #define HAVE___UINT64_T_IN_SYS_TYPES_H 1
| #define HAVE_ZLIB 1
| /* end confdefs.h.  */
| #include <libelf.h>
| int
| main ()
| {
|  struct _Elf a; int i; i = 0;
|   ;
|   return 0;
| }
configure:4202: result: no
configure:4209: checking compile with libelf.h works 
configure:4224: /usr/bin/gcc -static-libgcc -c -fPIC -m32 -ffunction-sections -fdata-sections -I/home/white/Documents/_Cateye/frida-cateyes/build/fs-linux-x86/include -Wall -Os -pipe -g3  -I/home/white/Documents/_Cateye/frida-cateyes/build/fs-linux-x86/include conftest.c >&5
conftest.c: In function 'main':
conftest.c:35:7: warning: variable 'p' set but not used [-Wunused-but-set-variable]
   int p; p = 0;
       ^
configure:4224: $? = 0
configure:4228: result: yes
configure:4236: checking libelf.h exists and has Elf function declarations
configure:4251: /usr/bin/gcc -static-libgcc -c -fPIC -m32 -ffunction-sections -fdata-sections -I/home/white/Documents/_Cateye/frida-cateyes/build/fs-linux-x86/include -Wall -Os -pipe -g3  -I/home/white/Documents/_Cateye/frida-cateyes/build/fs-linux-x86/include conftest.c >&5
conftest.c: In function 'main':
conftest.c:36:16: warning: variable 'ident' set but not used [-Wunused-but-set-variable]
   int p; char *ident; p = 0;ident=elf_getident(0, 0);
                ^~~~~
conftest.c:36:7: warning: variable 'p' set but not used [-Wunused-but-set-variable]
   int p; char *ident; p = 0;ident=elf_getident(0, 0);
       ^
configure:4251: $? = 0
configure:4252: result: yes
configure:4260: checking libelf/libelf.h exists and has Elf function declarations
configure:4275: /usr/bin/gcc -static-libgcc -c -fPIC -m32 -ffunction-sections -fdata-sections -I/home/white/Documents/_Cateye/frida-cateyes/build/fs-linux-x86/include -Wall -Os -pipe -g3  -I/home/white/Documents/_Cateye/frida-cateyes/build/fs-linux-x86/include conftest.c >&5
conftest.c:31:27: fatal error: libelf/libelf.h: No such file or directory
 #include <libelf/libelf.h>
                           ^
compilation terminated.
configure:4275: $? = 1
configure: failed program was:
| /* confdefs.h */
| #define PACKAGE_NAME ""
| #define PACKAGE_TARNAME ""
| #define PACKAGE_VERSION ""
| #define PACKAGE_STRING ""
| #define PACKAGE_BUGREPORT ""
| #define PACKAGE_URL ""
| #define STDC_HEADERS 1
| #define HAVE_SYS_TYPES_H 1
| #define HAVE_SYS_STAT_H 1
| #define HAVE_STDLIB_H 1
| #define HAVE_STRING_H 1
| #define HAVE_MEMORY_H 1
| #define HAVE_STRINGS_H 1
| #define HAVE_INTTYPES_H 1
| #define HAVE_STDINT_H 1
| #define HAVE_UNISTD_H 1
| #define HAVE_ALLOCA_H 1
| #define HAVE_ELF_H 1
| #define HAVE_UNISTD_H 1
| #define HAVE_LIBELF_H 1
| #define HAVE_SYS_TYPES_H 1
| #define HAVE_ELF64_GETEHDR 1
| #define HAVE_ELF64_GETSHDR 1
| #define HAVE___UINT32_T_IN_SYS_TYPES_H 1
| #define HAVE___UINT64_T_IN_SYS_TYPES_H 1
| #define HAVE_ZLIB 1
| #define HAVE_RAW_LIBELF_OK 1
| /* end confdefs.h.  */
| 
| #include <libelf/libelf.h>
| 
| int
| main ()
| {
|   int p; char *ident; p = 0;ident=elf_getident(0, 0);
|   ;
|   return 0;
| }
configure:4279: result: no
configure:4285: checking libelf defines off64_t if _GNU_SOURCE defined
configure:4301: /usr/bin/gcc -static-libgcc -c -fPIC -m32 -ffunction-sections -fdata-sections -I/home/white/Documents/_Cateye/frida-cateyes/build/fs-linux-x86/include -Wall -Os -pipe -g3  -I/home/white/Documents/_Cateye/frida-cateyes/build/fs-linux-x86/include conftest.c >&5
conftest.c: In function 'main':
conftest.c:37:12: warning: variable 'p' set but not used [-Wunused-but-set-variable]
   off64_t  p; p = 0;
            ^
configure:4301: $? = 0
configure:4305: result: yes
configure:4313: checking sgidefs.h present and defines __uint32_t
configure:4326: /usr/bin/gcc -static-libgcc -c -fPIC -m32 -ffunction-sections -fdata-sections -I/home/white/Documents/_Cateye/frida-cateyes/build/fs-linux-x86/include -Wall -Os -pipe -g3  -I/home/white/Documents/_Cateye/frida-cateyes/build/fs-linux-x86/include conftest.c >&5
conftest.c:31:21: fatal error: sgidefs.h: No such file or directory
 #include <sgidefs.h>
                     ^
compilation terminated.
configure:4326: $? = 1
configure: failed program was:
| /* confdefs.h */
| #define PACKAGE_NAME ""
| #define PACKAGE_TARNAME ""
| #define PACKAGE_VERSION ""
| #define PACKAGE_STRING ""
| #define PACKAGE_BUGREPORT ""
| #define PACKAGE_URL ""
| #define STDC_HEADERS 1
| #define HAVE_SYS_TYPES_H 1
| #define HAVE_SYS_STAT_H 1
| #define HAVE_STDLIB_H 1
| #define HAVE_STRING_H 1
| #define HAVE_MEMORY_H 1
| #define HAVE_STRINGS_H 1
| #define HAVE_INTTYPES_H 1
| #define HAVE_STDINT_H 1
| #define HAVE_UNISTD_H 1
| #define HAVE_ALLOCA_H 1
| #define HAVE_ELF_H 1
| #define HAVE_UNISTD_H 1
| #define HAVE_LIBELF_H 1
| #define HAVE_SYS_TYPES_H 1
| #define HAVE_ELF64_GETEHDR 1
| #define HAVE_ELF64_GETSHDR 1
| #define HAVE___UINT32_T_IN_SYS_TYPES_H 1
| #define HAVE___UINT64_T_IN_SYS_TYPES_H 1
| #define HAVE_ZLIB 1
| #define HAVE_RAW_LIBELF_OK 1
| #define HAVE_LIBELF_OFF64_OK 1
| /* end confdefs.h.  */
| #include <sgidefs.h>
| int
| main ()
| {
|   __uint32_t p; p = 27;
|   ;
|   return 0;
| }
configure:4333: result: no
configure:4338: checking sgidefs.h present and defines __uint64_t
configure:4351: /usr/bin/gcc -static-libgcc -c -fPIC -m32 -ffunction-sections -fdata-sections -I/home/white/Documents/_Cateye/frida-cateyes/build/fs-linux-x86/include -Wall -Os -pipe -g3  -I/home/white/Documents/_Cateye/frida-cateyes/build/fs-linux-x86/include conftest.c >&5
conftest.c:31:21: fatal error: sgidefs.h: No such file or directory
 #include <sgidefs.h>
                     ^
compilation terminated.
configure:4351: $? = 1
configure: failed program was:
| /* confdefs.h */
| #define PACKAGE_NAME ""
| #define PACKAGE_TARNAME ""
| #define PACKAGE_VERSION ""
| #define PACKAGE_STRING ""
| #define PACKAGE_BUGREPORT ""
| #define PACKAGE_URL ""
| #define STDC_HEADERS 1
| #define HAVE_SYS_TYPES_H 1
| #define HAVE_SYS_STAT_H 1
| #define HAVE_STDLIB_H 1
| #define HAVE_STRING_H 1
| #define HAVE_MEMORY_H 1
| #define HAVE_STRINGS_H 1
| #define HAVE_INTTYPES_H 1
| #define HAVE_STDINT_H 1
| #define HAVE_UNISTD_H 1
| #define HAVE_ALLOCA_H 1
| #define HAVE_ELF_H 1
| #define HAVE_UNISTD_H 1
| #define HAVE_LIBELF_H 1
| #define HAVE_SYS_TYPES_H 1
| #define HAVE_ELF64_GETEHDR 1
| #define HAVE_ELF64_GETSHDR 1
| #define HAVE___UINT32_T_IN_SYS_TYPES_H 1
| #define HAVE___UINT64_T_IN_SYS_TYPES_H 1
| #define HAVE_ZLIB 1
| #define HAVE_RAW_LIBELF_OK 1
| #define HAVE_LIBELF_OFF64_OK 1
| /* end confdefs.h.  */
| #include <sgidefs.h>
| int
| main ()
| {
|   __uint64_t p; p = 27;
|   ;
|   return 0;
| }
configure:4358: result: no
configure:4363: checking is Elf64_Rela defined in elf.h
configure:4376: /usr/bin/gcc -static-libgcc -c -fPIC -m32 -ffunction-sections -fdata-sections -I/home/white/Documents/_Cateye/frida-cateyes/build/fs-linux-x86/include -Wall -Os -pipe -g3  -I/home/white/Documents/_Cateye/frida-cateyes/build/fs-linux-x86/include conftest.c >&5
conftest.c: In function 'main':
conftest.c:35:14: warning: variable 'p' set but not used [-Wunused-but-set-variable]
   Elf64_Rela p; p.r_offset = 1;
              ^
configure:4376: $? = 0
configure:4380: result: yes
configure:4388: checking is Elf64_Sym defined in elf.h
configure:4401: /usr/bin/gcc -static-libgcc -c -fPIC -m32 -ffunction-sections -fdata-sections -I/home/white/Documents/_Cateye/frida-cateyes/build/fs-linux-x86/include -Wall -Os -pipe -g3  -I/home/white/Documents/_Cateye/frida-cateyes/build/fs-linux-x86/include conftest.c >&5
conftest.c: In function 'main':
conftest.c:36:13: warning: variable 'p' set but not used [-Wunused-but-set-variable]
   Elf64_Sym p; p.st_info = 1;
             ^
configure:4401: $? = 0
configure:4405: result: yes
configure:4421: checking build shared
configure:4439: result: no
configure:4447: checking build nonshared
configure:4463: result: yes
configure:4468: checking build -fPIC
configure:4483: result: yes
configure:4489: checking build -Wall
configure:4499: result: no
configure:4506: checking build -fsanitize-address
configure:4516: result: no
configure:4534: checking enable nonstandardprintf
configure:4544: result: no
configure:4549: checking enable  windowspath
configure:4559: result: no
configure:4564: checking enable old frame columns
configure:4574: result: no
configure:4579: checking have windows stdafx.h
configure:4592: /usr/bin/gcc -static-libgcc -c -fPIC -m32 -ffunction-sections -fdata-sections -I/home/white/Documents/_Cateye/frida-cateyes/build/fs-linux-x86/include -Wall -Os -pipe -g3  -I/home/white/Documents/_Cateye/frida-cateyes/build/fs-linux-x86/include conftest.c >&5
conftest.c:33:20: fatal error: stdafx.h: No such file or directory
 #include "stdafx.h"
                    ^
compilation terminated.
configure:4592: $? = 1
configure: failed program was:
| /* confdefs.h */
| #define PACKAGE_NAME ""
| #define PACKAGE_TARNAME ""
| #define PACKAGE_VERSION ""
| #define PACKAGE_STRING ""
| #define PACKAGE_BUGREPORT ""
| #define PACKAGE_URL ""
| #define STDC_HEADERS 1
| #define HAVE_SYS_TYPES_H 1
| #define HAVE_SYS_STAT_H 1
| #define HAVE_STDLIB_H 1
| #define HAVE_STRING_H 1
| #define HAVE_MEMORY_H 1
| #define HAVE_STRINGS_H 1
| #define HAVE_INTTYPES_H 1
| #define HAVE_STDINT_H 1
| #define HAVE_UNISTD_H 1
| #define HAVE_ALLOCA_H 1
| #define HAVE_ELF_H 1
| #define HAVE_UNISTD_H 1
| #define HAVE_LIBELF_H 1
| #define HAVE_SYS_TYPES_H 1
| #define HAVE_ELF64_GETEHDR 1
| #define HAVE_ELF64_GETSHDR 1
| #define HAVE___UINT32_T_IN_SYS_TYPES_H 1
| #define HAVE___UINT64_T_IN_SYS_TYPES_H 1
| #define HAVE_ZLIB 1
| #define HAVE_RAW_LIBELF_OK 1
| #define HAVE_LIBELF_OFF64_OK 1
| #define HAVE_ELF64_RELA 1
| #define HAVE_ELF64_SYM 1
| /* end confdefs.h.  */
| #include "stdafx.h"
| int
| main ()
| {
|   int p; p = 27;
|   ;
|   return 0;
| }
configure:4599: result: no
configure:4604: checking producer generates SGI IRIX output
configure:4614: result: no
configure:4619: checking producer generates only 32bit
configure:4632: result: no
configure:4754: creating ./config.status

## ---------------------- ##
## Running config.status. ##
## ---------------------- ##

This file was extended by config.status, which was
generated by GNU Autoconf 2.69.  Invocation command line was

  CONFIG_FILES    = 
  CONFIG_HEADERS  = 
  CONFIG_LINKS    = 
  CONFIG_COMMANDS = 
  $ ./config.status 

on white-All-Series

config.status:826: creating Makefile
config.status:826: creating config.h

## ---------------- ##
## Cache variables. ##
## ---------------- ##

ac_cv_c_bigendian=no
ac_cv_c_compiler_gnu=yes
ac_cv_env_CC_set=set
ac_cv_env_CC_value='/usr/bin/gcc -static-libgcc'
ac_cv_env_CFLAGS_set=set
ac_cv_env_CFLAGS_value='-fPIC -m32 -ffunction-sections -fdata-sections -I/home/white/Documents/_Cateye/frida-cateyes/build/fs-linux-x86/include'
ac_cv_env_CPPFLAGS_set=set
ac_cv_env_CPPFLAGS_value=' -I/home/white/Documents/_Cateye/frida-cateyes/build/fs-linux-x86/include'
ac_cv_env_CPP_set=set
ac_cv_env_CPP_value=/usr/bin/cpp
ac_cv_env_LDFLAGS_set=set
ac_cv_env_LDFLAGS_value='-m32 -Wl,--gc-sections -Wl,-z,noexecstack -L/home/white/Documents/_Cateye/frida-cateyes/build/fs-linux-x86/lib'
ac_cv_env_LIBS_set=
ac_cv_env_LIBS_value=
ac_cv_env_build_alias_set=
ac_cv_env_build_alias_value=
ac_cv_env_host_alias_set=
ac_cv_env_host_alias_value=
ac_cv_env_target_alias_set=
ac_cv_env_target_alias_value=
ac_cv_header_alloca_h=yes
ac_cv_header_elf_h=yes
ac_cv_header_elfaccess_h=no
ac_cv_header_inttypes_h=yes
ac_cv_header_libelf_h=yes
ac_cv_header_libelf_libelf_h=no
ac_cv_header_memory_h=yes
ac_cv_header_stdc=yes
ac_cv_header_stdint_h=yes
ac_cv_header_stdint_t=yes
ac_cv_header_stdlib_h=yes
ac_cv_header_string_h=yes
ac_cv_header_strings_h=yes
ac_cv_header_sys_elf_386_h=no
ac_cv_header_sys_elf_SPARC_h=no
ac_cv_header_sys_elf_amd64_h=no
ac_cv_header_sys_ia64_elf_h=no
ac_cv_header_sys_stat_h=yes
ac_cv_header_sys_types_h=yes
ac_cv_header_unistd_h=yes
ac_cv_lib_elf_elf64_getehdr=yes
ac_cv_lib_elf_elf64_getshdr=yes
ac_cv_objext=o
ac_cv_path_EGREP='/bin/grep -E'
ac_cv_path_GREP=/bin/grep
ac_cv_path_install='/usr/bin/install -p'
ac_cv_prog_CPP=/usr/bin/cpp
ac_cv_prog_ac_ct_AR=/usr/bin/ar
ac_cv_prog_ac_ct_CC='/usr/bin/gcc -static-libgcc'
ac_cv_prog_ac_ct_RANLIB=/usr/bin/ranlib
ac_cv_prog_cc_c89=
ac_cv_prog_cc_g=yes
ac_cv_prog_gcc_traditional=no

## ----------------- ##
## Output variables. ##
## ----------------- ##

AR='/usr/bin/ar'
CC='/usr/bin/gcc -static-libgcc'
CFLAGS='-fPIC -m32 -ffunction-sections -fdata-sections -I/home/white/Documents/_Cateye/frida-cateyes/build/fs-linux-x86/include -Wall -Os -pipe -g3'
CPP='/usr/bin/cpp'
CPPFLAGS=' -I/home/white/Documents/_Cateye/frida-cateyes/build/fs-linux-x86/include'
DEFS='-DHAVE_CONFIG_H'
ECHO_C=''
ECHO_N='-n'
ECHO_T=''
EGREP='/bin/grep -E'
EXEEXT=''
GREP='/bin/grep'
INSTALL_DATA='${INSTALL} -m 644'
INSTALL_PROGRAM='${INSTALL}'
INSTALL_SCRIPT='${INSTALL}'
LDFLAGS='-m32 -Wl,--gc-sections -Wl,-z,noexecstack -L/home/white/Documents/_Cateye/frida-cateyes/build/fs-linux-x86/lib'
LIBOBJS=''
LIBS=''
LTLIBOBJS=''
OBJEXT='o'
PACKAGE_BUGREPORT=''
PACKAGE_NAME=''
PACKAGE_STRING=''
PACKAGE_TARNAME=''
PACKAGE_URL=''
PACKAGE_VERSION=''
PATH_SEPARATOR=':'
RANLIB='/usr/bin/ranlib'
SHELL='/bin/bash'
ac_ct_CC='/usr/bin/gcc -static-libgcc'
bindir='${exec_prefix}/bin'
build_alias=''
build_nonshared='libdwarf.a'
build_shared='nosharedlibrary'
datadir='${datarootdir}'
datarootdir='${prefix}/share'
docdir='${datarootdir}/doc/${PACKAGE}'
dvidir='${docdir}'
dwarf_namestable='-s'
dwfpic='-fPIC'
dwfsanitize=''
dwfwall=''
dwfzlib='-lz'
exec_prefix='${prefix}'
host_alias='i686-linux-gnu'
htmldir='${docdir}'
includedir='${prefix}/include'
infodir='${datarootdir}/info'
libdir='${exec_prefix}/lib'
libexecdir='${exec_prefix}/libexec'
localedir='${datarootdir}/locale'
localstatedir='${prefix}/var'
mandir='${datarootdir}/man'
oldincludedir='/usr/include'
pdfdir='${docdir}'
prefix='/home/white/Documents/_Cateye/frida-cateyes/build/fs-linux-x86'
program_transform_name='s,x,x,'
psdir='${docdir}'
runstatedir='${localstatedir}/run'
sbindir='${exec_prefix}/sbin'
sharedstatedir='${prefix}/com'
sysconfdir='${prefix}/etc'
target_alias=''

## ----------- ##
## confdefs.h. ##
## ----------- ##

/* confdefs.h */
#define PACKAGE_NAME ""
#define PACKAGE_TARNAME ""
#define PACKAGE_VERSION ""
#define PACKAGE_STRING ""
#define PACKAGE_BUGREPORT ""
#define PACKAGE_URL ""
#define STDC_HEADERS 1
#define HAVE_SYS_TYPES_H 1
#define HAVE_SYS_STAT_H 1
#define HAVE_STDLIB_H 1
#define HAVE_STRING_H 1
#define HAVE_MEMORY_H 1
#define HAVE_STRINGS_H 1
#define HAVE_INTTYPES_H 1
#define HAVE_STDINT_H 1
#define HAVE_UNISTD_H 1
#define HAVE_ALLOCA_H 1
#define HAVE_ELF_H 1
#define HAVE_UNISTD_H 1
#define HAVE_LIBELF_H 1
#define HAVE_SYS_TYPES_H 1
#define HAVE_ELF64_GETEHDR 1
#define HAVE_ELF64_GETSHDR 1
#define HAVE___UINT32_T_IN_SYS_TYPES_H 1
#define HAVE___UINT64_T_IN_SYS_TYPES_H 1
#define HAVE_ZLIB 1
#define HAVE_RAW_LIBELF_OK 1
#define HAVE_LIBELF_OFF64_OK 1
#define HAVE_ELF64_RELA 1
#define HAVE_ELF64_SYM 1
#define HAVE_DWARF2_99_EXTENSION 1

configure: exit 0
